{
 "mdsDat": {
 "x": [ -0.1880198, -0.09718187, -0.1706118, -0.01171905, -0.001496973, 0.1860015, 0.06266979, 0.09483268, -0.03355325, 0.1590788 ],
"y": [ 0.1304739, -0.1006242, -0.05315051, -0.2210764, 0.08339394, -0.1042674, 0.08150009, 0.1184472, 0.02136713, 0.04393632 ],
"topics": [ 1, 2, 3, 4, 5, 6, 7, 8, 9, 10 ],
"Freq": [ 11.82005, 11.15687, 10.62188, 10.46515, 10.41528, 10.16905,  9.44075, 9.013599, 8.590697, 8.306685 ],
"cluster": [        1,        1,        1,        1,        1,        1,        1,        1,        1,        1 ] 
},
"tinfo": {
 "Term": [ "virus", "antiviral", "viral", "activity", "drug", "viruses", "infection", "compounds", "cells", "cell", "clinical", "development", "diseases", "sars", "drugs", "treatment", "inhibitors", "replication", "delivery", "human", "vaccines", "review", "therapeutic", "vitro", "cov", "disease", "anti", "influenza", "protein", "vaccine", "systems", "past", "understanding", "aptamers", "technology", "biology", "developments", "recognition", "tools", "microarrays", "networks", "engineering", "sequencing", "aptamer", "diagnostics", "microarray", "detection", "modern", "practical", "examples", "biosensors", "proteomic", "immunology", "century", "discussion", "parallel", "translational", "enabled", "virology", "technologies", "delivery", "vaccines", "sirna", "sirnas", "peptides", "interference", "mrna", "sequences", "antigen", "rnai", "silencing", "antisense", "translation", "vectors", "mucosal", "barriers", "adjuvants", "live", "reporter", "carriers", "transgenic", "attenuated", "deliver", "exon", "rnas", "gene", "delivered", "dmd", "genetically", "subunit", "clinical", "patients", "infectious", "trials", "success", "repurposing", "urgent", "global", "individuals", "morbidity", "concern", "failure", "malaria", "options", "outcomes", "approval", "economic", "status", "trial", "mabs", "focuses", "ards", "indications", "management", "copd", "mab", "containment", "population", "circumvent", "falciparum", "virus", "viral", "viruses", "entry", "influenza", "replication", "hepatitis", "ebola", "ribavirin", "zikv", "dengue", "rsv", "hbv", "hcv", "zika", "enveloped", "attachment", "feline", "griffithsin", "denv", "antivirals", "fcv", "polymerase", "encephalitis", "acting", "immunodeficiency", "glycoproteins", "atpase", "genotype", "acyclovir", "sars", "syndrome", "mers", "docking", "pro", "database", "middle", "cov", "protease", "hts", "pharmacophore", "helicase", "protocol", "hits", "library", "coronavirus", "cathepsin", "scv", "epac", "site", "pubchem", "binding", "bismuth", "qsar", "similarity", "modeling", "novo", "plpro", "screening", "comparative", "concentrations", "dose", "jev", "emodin", "index", "survival", "pcr", "apoptosis", "niclosamide", "chikv", "concentration", "cytopathic", "gondii", "doses", "prrsv", "ata", "days", "treated", "cpe", "mtt", "effect", "suppressed", "virucidal", "potassium", "western", "decreased", "channels", "phosphorylation", "rice", "pedv", "nanoparticles", "nps", "tio", "coli", "imaging", "organic", "silver", "parameters", "oxide", "nanomaterials", "aureus", "bactericidal", "mic", "sensing", "gram", "polymers", "susceptibility", "staphylococcus", "hybrid", "poly", "escherichia", "bacteria", "coated", "spectroscopy", "plga", "aunps", "mrsa", "inorganic", "peg", "negative", "extracts", "medicinal", "herbal", "metabolites", "plants", "bioactive", "chinese", "antioxidant", "constituents", "root", "biosynthesis", "herbs", "radix", "tcm", "extract", "hplc", "extraction", "sinensis", "marine", "licorice", "algae", "leaf", "glycyrrhiza", "ingredients", "content", "medicines", "contents", "japonica", "methanol", "indigotica", "animals", "lipid", "intestinal", "plasma", "transport", "cardiovascular", "modulation", "bone", "pig", "tannins", "physiological", "defensins", "fully", "manufacturing", "evd", "sci", "condition", "defensin", "gut", "milk", "alterations", "pigs", "calves", "pharmaceuticals", "healthy", "pathology", "cytokine", "load", "age", "feed", "derivatives", "analogues", "nucleoside", "reaction", "nmr", "ring", "position", "synthesized", "nucleosides", "substituent", "sugar", "cytostatic", "scheme", "linker", "sar", "fas", "pyrimidine", "moiety", "hydroxyl", "vzv", "amine", "chains", "hel", "substituents", "mono", "substituted", "aco", "acyclic", "adenosine", "converted", "techniques", "peptide", "recombinant", "targeted", "vaccine", "vaccination", "fda", "chloroquine", "people", "patient", "antiviral", "infection", "hiv", "hsv", "inhibitors", "virtual", "viability", "polymer", "plant", "traditional", "innate", "rats", "blood", "yields", "ester", "characterization", "basic", "interfering", "immunogenicity", "public", "therapies", "inhibitor", "vitro", "significantly", "light", "gold", "secondary", "flavonoids", "pharmacology", "oral", "defense", "series", "genomics", "diseases", "norovirus", "ebov", "prediction", "validated", "assay", "isolated", "quercetin", "gastrointestinal", "veterinary", "synthesis", "chain", "derivative", "applications", "scale", "spectrum", "structure", "proteases", "line", "surfaces", "pharmacological", "role", "advances", "display", "expression", "treatments", "set", "manner", "materials", "microorganisms", "temperature", "regulation", "improving", "bond", "decade", "efficient", "immunity", "disease", "vero", "reduced", "disorders", "amino", "areas", "short", "existing", "cytotoxic", "induced", "care", "approaches", "large", "mammalian", "drugs", "hit", "inhibiting", "surface", "drug", "emerging", "screen", "mechanism", "properties", "roots", "inflammation", "groups", "antibody", "dna", "development", "action", "antimicrobial", "size", "species", "assessment", "group", "east", "animal", "field", "bacterial", "model", "scaffold", "diagnostic", "fever", "coronaviruses", "increased", "considered", "review", "responses", "therapeutic", "treat", "interferon", "lead", "enzyme", "treatment", "results", "cells", "produced", "current", "broad", "acute", "alkaloids", "genes", "showed", "antibacterial", "prepared", "research", "immune", "agents", "worldwide", "molecule", "cell", "safety", "processes", "factors", "host", "compounds", "study", "product", "activity", "inhibition", "total", "moderate", "assays", "models", "products", "activity", "proteins", "health", "lectins", "solution", "analogs", "good", "molecular", "effects", "protein", "medicine", "complexes", "intracellular", "therapy", "strains", "anti", "biological", "contrast", "human", "recent", "pathogens", "identified", "studies", "rna", "targets", "methods", "targeting", "cytotoxicity", "infections", "target", "reduction", "metal", "antibodies", "tumor", "compounds", "approved", "material", "natural", "reactions", "complex", "play", "fluorescence", "cell", "develop", "based", "activities", "rna", "infections", "inhibited", "cells", "human", "membrane", "acid", "evaluated", "discuss", "potential", "cancer", "particles", "specific", "system", "active", "mechanisms", "compound", "cancer", "effective", "infected", "structures", "severe", "inhibitory", "food", "target", "effective", "ability", "administration", "respiratory", "activities", "molecular", "drug", "humans", "treatment", "sequence", "provide", "resistant", "analysis", "system", "showed", "essential", "based", "cellular", "acid", "water", "vivo", "obtained", "production", "high", "therapeutics", "anti", "led", "immune", "components", "therapeutic", "range", "biological", "functional", "review", "anti", "evaluated", "interactions", "knowledge", "type", "protein", "chemical", "important", "exhibited", "potential", "active", "present", "molecules", "major", "addition", "effects", "compounds", "based", "resistance", "respiratory", "significant", "potent", "design", "including", "method", "health", "recent", "active", "including", "range", "host", "study", "effects", "high", "addition", "high", "experimental", "disease", "time", "properties", "high", "specific", "production", "due", "found", "potent", "low", "increasing", "protein", "methods", "small", "highly", "provide", "process", "targets", "potential", "inhibit", "proteins" ],
"logprob": [       30,       29,       28,       27,       26,       25,       24,       23,       22,       21,       20,       19,       18,       17,       16,       15,       14,       13,       12,       11,       10,        9,        8,        7,        6,        5,        4,        3,        2,        1,  -4.5879,  -5.7793,  -5.0515,  -5.8365,  -5.1026,  -5.2133,  -6.0304,  -6.2457,  -5.5724,  -6.3954,  -6.5204,  -5.8365,  -6.6256,  -6.6826,  -6.6826,  -6.6826,  -5.5659,    -6.83,  -6.8529,  -6.1494,  -6.9503,  -6.9503,  -6.9762,  -7.0582,  -7.0871,  -7.0871,  -7.0871,  -7.1476,  -7.1476,  -5.4742,  -4.2046,  -4.2258,  -4.6437,  -5.5006,   -4.827,  -5.7859,  -5.9714,  -6.0904,  -5.3751,  -5.0436,  -6.2123,  -6.3075,  -6.3219,  -5.6739,  -6.4953,  -6.5126,  -6.5303,  -6.5853,  -6.6434,  -6.6636,  -6.6636,  -6.7052,   -6.771,  -6.8661,  -6.1495,  -4.4045,  -6.9172,  -6.9711,  -7.0281,  -7.0281,  -3.9162,  -4.8977,  -4.5374,  -5.2151,  -6.1082,  -6.1459,  -6.4767,  -5.7494,  -6.5317,  -6.5507,  -6.5898,  -6.6306,  -6.6306,  -6.0483,  -6.8636,  -6.8902,  -6.8902,  -6.9456,  -6.9745,  -6.3434,   -6.459,   -7.281,  -7.3216,  -6.7174,  -7.5031,  -6.7638,  -7.5542,  -6.1331,  -7.6079,  -7.6079,  -2.9784,  -3.2404,  -3.7214,  -5.0705,  -4.3452,  -4.1116,  -5.3757,  -5.3817,  -5.5298,  -5.5796,  -5.9042,  -5.9143,  -6.0105,  -4.9431,  -6.1423,  -6.2362,  -6.3244,  -6.3716,  -6.4555,  -6.4912,  -5.3757,  -6.5665,  -5.8265,  -6.6914,  -6.7138,  -6.0332,  -6.9421,   -6.971,  -7.0008,  -7.0314,  -4.0583,  -4.8995,  -5.1614,   -5.382,  -5.0135,  -6.0866,  -6.2884,  -4.2639,  -4.8775,  -6.6857,  -6.7081,  -6.7311,  -6.7311,  -6.8032,  -5.6418,  -4.6683,   -6.881,  -6.1495,  -6.9364,  -5.5103,  -6.9951,  -4.5256,  -7.0257,  -7.0574,  -7.0574,  -6.3341,  -7.0901,  -7.0901,  -4.6922,  -7.1238,  -5.1102,   -5.387,  -5.8852,  -6.0493,  -6.0981,  -6.1234,  -6.2173,  -6.2902,  -6.2902,  -6.3853,  -4.9961,  -6.4722,  -6.5282,  -6.6291,  -6.6291,  -6.7178,  -6.7413,  -5.7269,  -6.8951,  -6.8951,  -4.3199,  -6.9231,  -6.9231,  -7.0441,  -7.0441,  -6.3054,  -7.1818,  -7.2991,  -7.3415,  -6.6291,  -4.6421,   -5.566,  -5.8453,  -5.9833,  -6.0469,  -6.1434,  -6.2185,  -6.2829,  -6.2997,  -6.3342,  -6.4068,  -6.5057,  -6.5057,  -6.5267,  -6.5481,  -6.5701,  -6.6629,  -6.7128,  -6.7653,  -6.8208,  -6.8497,  -5.1527,  -6.8794,  -6.8794,  -6.9101,  -6.9417,  -6.9417,  -6.9744,  -6.9744,  -6.3168,  -4.8691,  -5.1006,  -5.3881,  -5.3953,  -4.6743,  -5.8039,  -5.0744,  -5.8938,  -5.8938,  -5.9796,  -6.1021,  -6.1166,  -6.1464,  -6.1464,    -4.99,  -6.2251,  -6.2416,  -6.3468,  -5.7516,  -6.5976,  -6.6974,  -6.6974,   -6.724,  -6.7513,  -6.0322,  -6.0322,  -6.8083,  -6.8083,  -6.8083,  -6.8381,  -5.3629,  -5.3703,  -6.0333,  -5.5951,  -6.3956,  -6.5288,  -6.6826,  -6.7107,     -6.8,  -6.8643,  -6.1242,  -6.1564,  -6.1729,  -6.1896,  -6.9693,  -6.9693,  -7.0069,  -7.0069,   -7.046,   -7.046,  -7.0867,  -7.0867,   -7.129,   -7.129,  -7.1733,  -7.1733,  -7.2196,  -7.2196,  -7.2682,  -7.2682,  -4.4846,  -5.2714,  -5.2714,   -5.364,  -5.6564,  -5.7841,  -5.8187,  -4.7983,  -6.1665,  -6.3893,  -6.4537,  -6.4761,  -6.5465,  -6.7332,  -6.7332,   -6.763,   -6.763,  -6.1021,   -6.858,  -6.8918,  -6.9268,   -6.963,   -6.963,   -6.963,  -7.0397,  -6.3094,  -7.0803,  -7.0803,  -7.0803,  -7.0803,    -5.48,   -4.755,  -5.4388,  -5.5263,  -4.3527,  -5.9613,  -5.7494,   -5.981,  -6.4417,   -6.513,  -3.1516,  -3.7191,  -4.8545,  -6.3399,  -4.0551,  -6.1113,  -6.6725,  -5.9119,  -4.4909,  -4.9853,  -5.6332,  -6.5529,  -5.6235,  -6.0714,  -6.4317,  -6.2976,   -6.138,  -6.0131,  -6.2933,  -5.7845,  -5.2201,  -4.9848,  -4.1622,  -5.1385,  -5.5107,  -6.4452,  -5.7314,  -5.6182,  -6.3105,  -5.6829,  -6.3351,  -5.0416,  -6.6633,  -3.9455,   -6.117,  -5.9559,  -6.6213,  -6.2028,   -4.682,  -5.1895,  -5.7933,  -6.4166,  -6.0777,  -4.6675,  -5.9045,  -6.0866,  -4.5571,  -5.7793,  -5.0661,  -4.6421,  -6.4154,  -6.1234,  -6.5701,  -5.2618,  -4.9165,  -5.2881,  -5.9905,  -4.4457,   -5.699,  -6.1625,  -5.9694,  -5.4656,  -6.0871,  -6.3881,  -6.1729,  -6.5054,  -6.3893,  -6.3809,  -5.4692,  -5.9613,  -4.2346,  -6.3054,  -5.4835,  -6.1401,  -5.5431,  -6.2713,  -5.9315,  -5.8301,  -5.7443,  -5.1385,   -6.278,  -4.9884,  -5.1999,  -6.0131,  -3.9569,  -6.5224,  -5.8752,  -5.0702,  -3.6815,  -5.1658,  -6.0391,  -5.0516,  -4.4412,  -6.4236,  -5.9238,  -5.4097,  -5.3277,  -4.4819,  -3.8191,  -5.0342,  -4.8373,  -5.7146,  -4.8948,  -6.5288,  -5.2249,  -6.3341,  -4.9213,    -5.48,  -5.4804,  -4.7117,  -6.0564,  -6.1155,  -6.2222,  -5.9717,  -5.4055,  -5.4973,  -4.2429,  -5.4094,  -4.2732,  -5.3913,   -6.117,  -5.2629,  -5.6263,  -4.1269,  -4.3608,  -3.9089,  -5.8032,  -4.8904,  -4.9784,  -5.2683,  -6.1166,  -5.3807,  -4.5304,  -5.5498,  -5.6868,   -4.799,  -4.7282,  -4.5047,  -5.8301,  -5.5812,  -3.9709,  -5.5495,  -5.7953,  -5.4859,  -4.6251,  -3.9208,  -4.3157,  -5.8134,  -3.6822,  -4.7065,  -5.7619,  -6.3893,  -5.2551,  -5.0005,  -5.1443,  -3.6278,  -4.7135,  -5.0962,  -6.0803,  -6.1434,  -6.0714,  -5.6268,  -4.6772,  -4.4649,  -4.4198,  -5.1221,  -5.7076,  -5.8116,  -5.0186,  -5.4498,  -4.2546,  -4.8828,   -6.203,  -4.1728,  -4.8795,  -5.2303,   -4.997,  -4.4604,  -4.6623,   -4.997,  -5.0515,  -5.1365,  -5.5248,  -4.7767,  -4.7739,   -5.613,  -6.1009,  -5.3636,  -5.5663,   -4.162,  -5.3853,   -6.203,  -5.0901,  -5.9305,  -5.5469,   -6.019,  -6.1009,   -4.475,  -5.5831,  -4.5282,  -4.8319,  -4.8401,   -4.924,  -5.3993,  -4.5028,  -4.5468,  -5.7728,   -4.989,  -5.2782,  -5.6529,  -4.5298,  -4.9756,   -5.824,  -4.9439,  -5.1634,  -5.1051,  -5.2778,  -5.1499,  -5.0806,  -4.9164,  -5.5579,  -5.5886,  -5.4635,  -5.1726,  -5.8609,  -4.9811,  -4.9162,  -5.6419,  -5.7245,  -5.1614,  -5.0635,  -5.0906,  -4.6392,  -5.7035,  -4.7412,  -5.7444,  -5.2616,  -5.6596,   -5.225,  -5.2915,  -5.0802,  -5.6639,  -4.8447,  -5.3807,  -5.0737,  -5.9005,  -5.1926,  -5.6564,  -5.4161,  -5.2022,  -5.3973,  -5.0438,  -5.8187,  -5.3629,  -5.7019,  -5.0847,  -5.4742,  -5.3131,  -5.6185,  -5.0104,   -5.148,  -5.3628,  -5.5532,  -5.8134,  -5.6167,  -5.0356,  -5.6685,  -5.4805,  -5.6564,  -5.0517,  -5.4465,  -5.6045,  -5.4397,  -5.3734,  -5.5438,  -5.3929,  -5.1723,   -5.064,   -5.447,  -5.4627,  -5.3509,  -5.5167,  -5.4859,  -5.3522,  -5.8561,  -5.6528,  -5.3103,  -5.4995,   -5.251,   -5.824,  -5.4174,  -5.2791,  -5.4848,  -5.3378,   -5.824,  -5.4121,  -5.8856,   -5.614,  -5.3688,  -5.6362,  -5.4002,  -5.4511,  -5.4152,   -5.947,  -5.6868,    -5.49,   -5.971,  -6.0339,  -5.4126,  -5.7415,  -5.4152,  -5.9833,  -5.5099,  -5.8488,  -5.5159,  -5.3103,   -5.387,  -5.4631 ],
"loglift": [       30,       29,       28,       27,       26,       25,       24,       23,       22,       21,       20,       19,       18,       17,       16,       15,       14,       13,       12,       11,       10,        9,        8,        7,        6,        5,        4,        3,        2,        1,   2.1283,   2.1282,   2.1281,   2.1278,   2.1277,   2.1268,   2.1262,    2.124,   2.1232,   2.1222,   2.1205,   2.1195,   2.1188,   2.1179,   2.1179,   2.1179,   2.1169,   2.1151,   2.1146,   2.1137,   2.1125,   2.1125,   2.1119,     2.11,   2.1092,   2.1092,   2.1092,   2.1076,   2.1076,   2.1068,   2.1915,   2.1915,   2.1907,   2.1874,   2.1869,   2.1855,    2.184,   2.1828,   2.1825,   2.1815,   2.1815,   2.1803,   2.1801,   2.1789,   2.1777,   2.1774,   2.1772,   2.1763,   2.1753,   2.1749,   2.1749,   2.1741,   2.1729,   2.1709,   2.1702,   2.1702,   2.1697,   2.1684,    2.167,    2.167,    2.241,    2.239,   2.2374,   2.2328,   2.2312,   2.2308,   2.2264,    2.226,   2.2255,   2.2252,   2.2245,   2.2238,   2.2238,   2.2207,    2.219,   2.2184,   2.2184,    2.217,   2.2163,   2.2132,   2.2099,   2.2071,   2.2057,   2.2006,   2.1986,   2.1983,   2.1963,   2.1942,   2.1939,   2.1939,   2.2566,   2.2565,   2.2538,   2.2531,   2.2531,   2.2522,   2.2517,   2.2517,   2.2508,   2.2505,    2.248,   2.2479,    2.247,   2.2459,   2.2455,   2.2444,   2.2433,   2.2426,   2.2413,   2.2408,   2.2401,   2.2395,   2.2393,   2.2372,   2.2367,   2.2354,   2.2316,   2.2308,     2.23,   2.2292,   2.2604,   2.2585,   2.2575,   2.2564,    2.254,   2.2509,   2.2485,   2.2483,   2.2477,    2.242,   2.2415,    2.241,    2.241,   2.2395,   2.2392,   2.2388,   2.2377,   2.2373,   2.2364,   2.2351,   2.2348,   2.2344,    2.234,   2.2331,   2.2331,   2.2324,   2.2322,   2.2322,   2.2322,   2.2312,   2.2816,   2.2802,   2.2766,    2.275,   2.2744,   2.2741,    2.273,    2.272,    2.272,   2.2707,   2.2696,   2.2693,   2.2683,   2.2665,   2.2665,   2.2647,   2.2642,   2.2607,   2.2607,   2.2607,   2.2604,     2.26,     2.26,   2.2567,   2.2567,   2.2565,   2.2525,   2.2484,   2.2468,   2.2456,   2.3573,   2.3529,   2.3506,   2.3492,   2.3485,   2.3473,   2.3463,   2.3454,   2.3452,   2.3447,   2.3435,   2.3418,   2.3418,   2.3414,    2.341,   2.3406,   2.3387,   2.3376,   2.3364,   2.3351,   2.3344,   2.3343,   2.3336,   2.3336,   2.3328,   2.3319,   2.3319,    2.331,    2.331,   2.3283,   2.4027,   2.4017,   2.4001,   2.4001,   2.3999,   2.3969,   2.3967,    2.396,    2.396,    2.395,   2.3936,   2.3934,    2.393,    2.393,    2.393,   2.3919,   2.3916,     2.39,   2.3871,   2.3854,   2.3832,   2.3832,   2.3826,   2.3819,   2.3815,   2.3813,   2.3805,   2.3805,   2.3805,   2.3797,    2.448,    2.448,   2.4419,   2.4373,   2.4365,   2.4339,   2.4305,   2.4299,   2.4276,   2.4258,   2.4256,   2.4248,   2.4243,   2.4236,   2.4227,   2.4227,   2.4215,   2.4215,   2.4202,   2.4202,   2.4188,   2.4188,   2.4173,   2.4173,   2.4157,   2.4157,   2.4139,   2.4139,   2.4119,   2.4119,   2.4823,    2.482,    2.482,   2.4814,   2.4791,   2.4779,   2.4776,    2.476,   2.4732,   2.4695,   2.4683,   2.4679,   2.4664,    2.462,    2.462,   2.4612,   2.4612,    2.459,   2.4586,   2.4576,   2.4565,   2.4554,   2.4554,   2.4554,   2.4528,   2.4521,   2.4514,   2.4514,   2.4514,   2.4514,   2.1008,   2.1581,   2.1643,   2.1617,   2.1477,   2.1637,   2.1925,   2.1898,   2.1928,   2.1903,   2.2253,   2.2192,   2.2259,   2.2276,   2.2168,   2.2263,   2.2438,   2.3279,   2.3786,   2.3701,   2.4093,   2.4107,   2.4009,   2.4451,   2.4477,   2.0974,   2.0921,   2.1628,   2.1666,   2.1825,   2.1698,   2.1915,   2.2162,   2.2202,   2.3159,   2.3239,   2.3684,   2.3632,   2.3733,   2.3973,   2.4003,   2.4109,   2.0995,   2.1189,   2.2213,   2.2161,   2.2229,   2.2089,   2.1953,   2.3454,   2.3566,   2.3961,   2.3853,   2.3987,   2.4272,     2.43,   2.0154,   2.0661,   2.1783,    2.142,   2.2135,   2.2241,   2.3193,   2.3297,   2.3422,   2.0383,   2.0699,   2.0684,    2.156,   2.1991,    2.212,   2.2706,   2.2957,   2.3088,   2.3781,   2.3911,   2.4298,   2.0804,   2.1047,   2.1345,   2.0463,   2.2267,   2.1702,   2.3658,   2.3717,   2.0734,    2.128,   2.1388,    2.185,    2.137,   2.3704,   1.9697,   1.9871,   2.1324,   1.9892,   2.2087,   2.1809,    2.186,   1.9198,   2.0558,   2.1632,   2.1072,   2.1047,   2.3694,   2.3249,   2.3114,   1.9644,   1.9662,   1.9068,   2.0907,   2.1346,   2.2297,   2.2161,   2.3688,   2.2815,   2.1872,   2.1879,   1.9667,   2.1793,   2.1211,   2.3505,   2.0388,   2.2036,   2.1308,   2.0938,   2.2221,   1.7339,   2.0039,   1.8543,   2.0289,   2.1865,   2.0126,   2.0669,   1.8062,   1.8915,   1.8106,   2.1918,   1.9183,   1.9716,   1.9844,   2.3376,   1.9888,    1.882,    2.134,   2.2425,   1.7468,   1.8491,    1.805,   2.0735,   2.0037,   1.7561,    2.163,   1.9551,   1.9883,   1.8407,   1.6332,   1.8096,   2.2066,   1.6265,   1.8813,   2.2485,   2.3719,        2,    1.998,   2.0296,    1.681,    1.653,   1.8408,   2.1655,   2.2283,    2.286,    2.159,   1.7006,   1.7451,   1.5257,   2.0255,   2.1755,   2.0198,   1.7865,   1.9558,   1.6506,   1.6197,   2.2332,   1.5765,   1.5973,   1.8565,   1.7531,   1.6611,   1.6165,   1.7174,   1.6353,   1.7333,    2.029,   1.6219,   1.5682,   2.0544,   2.1629,   1.7412,    1.905,    1.392,   1.8588,   2.1942,   1.8452,   2.2091,   1.8164,   2.1609,   2.1308,    1.252,    1.929,     1.25,   1.5865,   1.4387,   1.4746,   1.8756,   1.2167,   1.2025,   1.9224,   1.5452,   1.7253,   1.8507,   1.2321,   1.5847,   1.9491,   1.4399,   1.5685,   1.4937,   1.5956,   1.5651,   1.4798,   1.3107,   1.7958,   1.8166,   1.7011,   1.6246,   2.0089,    1.361,   1.3109,   1.7163,   1.8926,   1.4296,   1.3549,   1.2872,   0.9622,   1.8591,   1.1919,   1.9572,    1.574,   1.6903,   1.4835,   1.4404,   1.3322,   1.8919,   0.9335,   1.5686,   1.4605,    1.857,     1.56,   1.8735,   1.3759,   0.8715,   1.6471,   0.8614,   2.0189,   1.2145,   1.7767,   1.0427,   1.4603,   1.1894,   1.7485,   0.9665,   0.7572,   1.6408,   1.6245,   1.7998,   1.5421,   0.9099,   1.1574,   1.1507,   1.6611,   0.7102,   1.1522,   1.3145,   1.3234,   1.4236,   1.3175,   0.8172,   0.3817,   0.7142,     1.54,   1.1283,   1.6094,   1.2103,   1.3787,   0.8493,   1.3239,   1.2842,   1.1665,   1.0992,   0.9505,   1.1105,   1.0484,   0.8462,   0.7253,   0.7359,   1.0372,   0.6616,   1.8687,   0.6669,   1.6111,   0.9096,   0.6735,   0.9328,   1.3768,   0.9625,   0.9891,    1.237,    1.006,   1.5635,   0.5329,   0.9453,   1.2454,   0.9866,   1.3257,   1.4002,   1.1985,   0.4516,   1.6785,   0.9035 ],
"Freq": [     1032,      896,      794,      959,      715,      492,      511,      750,      636,      631,      410,      632,      450,      349,      507,      513,      366,      333,      323,      617,      316,      491,      423,      329,      287,      362,      528,      264,      507,      291, 233.1368, 70.82281, 146.6442, 66.89133, 139.3429, 124.7403, 55.09689, 44.42573, 87.11037, 38.24769, 33.75457, 66.89133, 30.38473, 28.69981, 28.69981, 28.69981, 87.67201, 24.76833, 24.20669, 48.91885, 21.96013, 21.96013, 21.39849, 19.71357, 19.15193, 19.15193, 19.15193, 18.02865, 18.02865, 96.09661, 322.8393, 316.0912,  208.122, 88.34358, 173.2569, 66.41233, 55.16554,  48.9798, 100.1527, 139.5165,  43.3564, 39.42002, 38.85768, 74.28509, 32.67194,  32.1096, 31.54726, 29.86024, 28.17322, 27.61088, 27.61088, 26.48621, 24.79919, 22.54983,  46.1681, 264.3559, 21.42515, 20.30047, 19.17579, 19.17579, 410.1365, 153.6953, 220.3474, 111.8965, 45.80922, 44.11467,   31.688, 65.57892, 29.99346, 29.42861, 28.29891, 27.16922, 27.16922, 48.63346, 21.52073, 20.95588, 20.95588, 19.82618, 19.26134, 36.20679, 32.25285,  14.1777, 13.61285, 24.90982, 11.35346, 23.78012, 10.78861, 44.67952, 10.22376, 10.22376, 1032.146, 794.2291, 490.9689, 127.3916, 263.1048, 332.3576, 93.88223, 93.32374, 80.47846, 76.56903, 55.34639,  54.7879, 49.76149, 144.7048,  43.6181, 39.70866, 36.35772, 34.68225,  31.8898, 30.77282, 93.88223, 28.53886, 59.81432, 25.18791, 24.62942, 48.64451, 19.60301, 19.04452, 18.48603, 17.92754,  348.881, 150.4308, 115.7719, 92.85232, 134.2194,  45.8951, 37.50988, 284.0353, 153.7849, 25.21156, 24.65254, 24.09353, 24.09353, 22.41648, 71.60977, 189.5618, 20.73944, 43.10002, 19.62141, 81.67203, 18.50338, 218.6306, 17.94437, 17.38535, 17.38535, 35.83283, 16.82634, 16.82634, 185.0897, 16.26732, 118.9658, 90.20603, 54.80942, 46.51335, 44.30106, 43.19491, 39.32341, 36.55805, 36.55805, 33.23962, 133.3456, 30.47426, 28.81505, 26.04969, 26.04969,  23.8374, 23.28433, 64.21165,  19.9659,  19.9659, 262.2114, 19.41282, 19.41282, 17.20054, 17.20054, 36.00498, 14.98825, 13.32903, 12.77596, 26.04969, 176.3912, 70.02181, 52.95719, 46.13134, 43.28724,  39.3055,  36.4614, 34.18611, 33.61729, 32.47965, 30.20437, 27.36027, 27.36027, 26.79145, 26.22263, 25.65381, 23.37852, 22.24088, 21.10324,  19.9656, 19.39678, 105.8575, 18.82796, 18.82796, 18.25914, 17.69032, 17.69032,  17.1215,  17.1215, 33.04847, 134.1999, 106.4656, 79.86336, 79.29735, 163.0661,  52.6951, 109.2956, 48.16706, 48.16706, 44.20502, 39.11097, 38.54496, 37.41295, 37.41295, 118.9177, 34.58293, 34.01692, 30.62089, 55.52513, 23.82883,  21.5648,  21.5648,  20.9988, 20.43279,   41.941,   41.941, 19.30078, 19.30078, 19.30078, 18.73478,  78.0659, 77.48806,  39.9286, 61.88644,   27.794, 24.32697, 20.85995, 20.28211,  18.5486, 17.39292, 36.46157, 35.30589, 34.72806, 34.15022, 15.65941, 15.65941, 15.08157, 15.08157, 14.50373, 14.50373, 13.92589, 13.92589, 13.34805, 13.34805, 12.77022, 12.77022, 12.19238, 12.19238, 11.61454, 11.61454, 181.6743, 82.71213, 82.71213, 75.40242, 56.28473, 49.53731, 47.85046, 132.7555, 33.79333, 27.04591, 25.35906, 24.79677, 23.10991, 19.17392, 19.17392, 18.61163, 18.61163, 36.04247, 16.92478, 16.36249, 15.80021, 15.23792, 15.23792, 15.23792, 14.11335, 29.29505, 13.55107, 13.55107, 13.55107, 13.55107, 95.53497, 186.1907, 93.96698, 86.09423, 278.4144, 55.72788, 65.57892, 52.02255,  32.8177, 30.55831, 867.9498, 492.0858, 158.1086, 35.79923,  349.999, 44.77707, 24.94354, 49.54427, 195.8945, 119.4837, 59.57508, 23.74914, 60.15292, 37.16704, 25.92134, 42.17917, 49.48049, 52.91618, 39.98236, 63.31952, 111.3317, 138.1325, 307.0102, 115.6473, 74.00355, 29.06673, 56.65714,  63.4492,  31.7529,  56.6859, 29.52752,  104.079, 29.26145, 398.2747, 44.73508, 52.55394,  26.8886, 40.86396,  182.569, 97.40952,  53.2611, 27.21616, 38.19508, 151.3109, 43.91446, 36.60476, 240.4381, 70.82281, 127.9501,  194.593, 33.03776, 43.19491, 25.65381, 90.61746, 121.9816,  115.754, 57.34345, 253.6715, 68.96801, 42.54101, 50.38485, 77.41647, 41.58078, 30.77319, 34.72806, 24.90481, 27.04591, 38.80933, 91.15528, 55.72788, 298.2965, 36.00498, 81.90995, 35.88373, 63.03215, 43.30245,  57.4149, 60.49528,  63.1055, 115.6473, 31.26103, 156.1921, 126.4252, 52.91618, 393.7559, 29.68367,  55.3625, 114.9586, 518.5875,  117.545, 48.13115, 126.1557, 215.6399, 28.35687,  44.5513, 72.02871, 111.2609, 244.6741, 451.9353,  128.368, 145.1061, 60.35186, 130.8038, 24.32697, 86.64812, 35.83283, 121.4037, 95.53497, 76.27883, 149.7178, 37.72933, 50.60377, 40.26715, 51.48524, 88.54681, 68.24265, 329.1772, 96.77868, 286.9996, 93.82135, 44.73508, 104.5916,  72.7278, 332.1874,  251.703, 395.5017, 55.23247,  154.825, 139.6784, 104.0326, 38.54496, 99.59038, 212.4349, 71.15945, 54.59788, 188.7672, 191.2518, 227.6905, 60.49528, 76.08188, 371.7196, 64.77563, 69.69953, 85.34862, 198.8784, 400.3103, 263.3175, 49.75184, 496.1608, 178.1445, 54.95912, 27.04591, 102.9267, 112.1583, 97.13455, 427.9551, 205.6164, 126.0177, 46.41055,  39.3055, 37.16704, 57.97159, 187.8848, 226.8148, 275.8214, 104.2016, 53.47331, 64.72531,  136.185, 87.18034, 279.9097, 173.6029, 37.03022, 256.6178, 174.1646,  110.202, 136.4555, 192.4778,  191.618, 136.4555, 146.6442,  127.145, 78.59152,  173.465, 170.5553, 71.95465, 41.01196, 107.3294, 82.72019, 250.8354,  94.3862, 37.03022, 107.5976, 42.78989, 89.35693, 40.50643, 41.01196, 246.3611, 77.44074, 218.0716, 139.2939, 171.0075, 147.4973, 89.09988,  239.613, 215.0746, 56.93893, 109.7018, 82.14984, 80.37069,  222.042,  136.111, 54.09483, 154.1373,  123.771, 122.4801, 84.99995, 93.39554, 134.4554, 148.6143,  78.2445, 75.52287, 85.58513, 111.7758, 47.44049, 148.5139, 150.8711, 64.90242, 54.37454, 115.7719, 101.8298, 141.0278,  195.152, 55.53022, 172.0607, 69.22403, 106.8129, 63.76478, 94.01349, 83.84428,  100.143, 60.61917, 180.3426, 99.59038, 123.3903, 50.11309, 109.5635, 56.28473, 74.02103, 100.7381,  93.2565, 112.6917, 47.85046,  78.0659, 58.35515, 133.8931, 67.53043, 79.33842, 83.17889, 137.3147, 117.8973, 92.41831, 88.79529, 49.75184, 73.77657, 140.6412, 63.19596, 69.39833, 56.28473, 129.1883, 75.33531,  61.3086, 99.46645, 95.51589, 79.36148, 75.75455, 99.10754, 136.7048, 88.73771, 86.06336, 93.52446, 64.71901, 94.97333, 96.11619, 52.38837, 58.41941, 101.7292, 65.84358, 107.9426, 54.09483,  101.713, 102.9146, 72.50529, 110.1376, 54.09483, 90.53128, 46.28481, 60.73076, 91.86524, 62.31719, 91.17528, 98.34317, 96.21634, 47.83781, 54.59788, 83.34907, 46.70016, 43.85606, 90.05725, 56.09113, 96.21634, 46.13134, 92.72677, 48.01833, 92.16513, 97.39596, 90.20603, 91.71762 ],
"Total": [     1032,      896,      794,      959,      715,      492,      511,      750,      636,      631,      410,      632,      450,      349,      507,      513,      366,      333,      323,      617,      316,      491,      423,      329,      287,      362,      528,      264,      507,      291, 234.7879, 71.33008,   147.71,  67.3986, 140.4125, 125.8124, 55.60416,   44.933, 88.17998, 38.75496, 34.26184, 67.96345,   30.892, 29.20708, 29.20708, 29.20708, 89.30378,  25.2756, 24.71396, 49.99097,  22.4674,  22.4674, 21.90576, 20.22084,  19.6592,  19.6592,  19.6592, 18.53592, 18.53592, 98.87916, 323.3465, 316.5984, 208.6292, 88.85079, 174.3329, 66.91953, 55.67274,   49.487, 101.2248, 141.1407,  43.8636, 39.92722, 39.36488, 75.35078, 33.17914,  32.6168, 32.05447, 30.36745, 28.68043, 28.11809, 28.11809, 26.99341, 25.30639, 23.05703, 47.23694, 270.4917, 21.93235, 20.80767, 19.68299, 19.68299, 410.6435, 154.2022, 221.4167, 112.9651, 46.31617, 44.62162, 32.19496, 66.65469, 30.50041, 29.93556, 28.80586, 27.67617, 27.67617, 49.69348, 22.02768, 21.46283, 21.46283, 20.33314, 19.76829, 37.27276, 33.31288, 14.68465,  14.1198, 25.96984, 11.86041, 24.84942, 11.29556, 46.87705, 10.73071, 10.73071, 1032.654, 794.7367, 492.5945, 127.8992,  264.174, 333.9928, 94.38981, 93.83132, 80.98604, 77.07661, 55.85398, 55.29549, 50.26908, 146.3305, 44.12568, 40.21625, 36.86531, 35.18984, 32.39738,  31.2804, 95.49596, 29.04644, 60.88791,  25.6955, 25.13701, 49.71443,  20.1106, 19.55211, 18.99362, 18.43513, 349.3885, 150.9384, 116.2795, 93.35985,   135.28, 46.40263, 38.01741, 287.9108, 155.9766, 25.71909, 25.16008, 24.60106, 24.60106, 22.92402, 73.25097, 193.9959, 21.24697, 44.17241, 20.12895, 83.88602, 19.01092, 224.7334,  18.4519, 17.89289, 17.89289, 36.90637, 17.33387, 17.33387, 190.6777, 16.77486, 119.4739, 90.71415, 55.31755, 47.02147, 44.80919, 43.70304, 39.83154, 37.06618, 37.06618, 33.74775, 135.5298, 30.98239, 29.32317, 26.55781, 26.55781, 24.34553, 23.79245, 65.84427, 20.47402, 20.47402, 268.9659, 19.92095, 19.92095, 17.70866, 17.70866, 37.07539, 15.49638, 13.83716, 13.28409,  27.1201, 176.8978, 70.52836, 53.46374,  46.6379, 43.79379, 39.81205, 36.96795, 34.69267, 34.12385,  32.9862, 30.71092, 27.86682, 27.86682,   27.298, 26.72918, 26.16036, 23.88508, 22.74744, 21.60979, 20.47215, 19.90333, 108.6234, 19.33451, 19.33451, 18.76569, 18.19687, 18.19687, 17.62805, 17.62805, 34.11737, 134.7067, 106.9724, 80.37019, 79.80419, 164.1346, 53.20193, 110.3615, 48.67389, 48.67389, 44.71185,  39.6178,  39.0518, 37.91979, 37.91979, 120.5307, 35.08976, 34.52376, 31.12772,  56.6098, 24.33566, 22.07164, 22.07164, 21.50563, 20.93963,  43.0009, 43.00947, 19.80762, 19.80762, 19.80762, 19.24161, 78.57155, 77.99371, 40.43425, 62.95694, 28.29965, 24.83263,  21.3656, 20.78776, 19.05425, 17.89857, 37.52951, 36.37004, 35.79272, 35.22072, 16.16506, 16.16506, 15.58722, 15.58722, 15.00938, 15.00938, 14.43154, 14.43154, 13.85371, 13.85371, 13.27587, 13.27587, 12.69803, 12.69803, 12.12019, 12.12019, 182.7346, 83.21934, 83.21934, 75.90963, 56.79194, 50.04452, 48.35766, 134.3781, 34.30054, 27.55312, 25.86626, 25.30398, 23.61712, 19.68113, 19.68113, 19.11884, 19.11884, 37.10869, 17.43199,  16.8697, 16.30742, 15.74513, 15.74513, 15.74513, 14.62056, 30.36826, 14.05828, 14.05828, 14.05828, 14.05828, 98.90043, 192.8313, 96.71124, 88.83854, 291.3365, 57.39075, 68.92553, 54.82536, 34.48033, 32.18854, 896.0275, 511.1039, 163.1189, 36.87282, 366.1443, 46.40158, 26.01401, 51.16885, 201.4196, 123.9005, 62.32625, 24.81328, 63.46416, 38.80074, 26.99089, 43.81101, 51.67082, 54.54246, 41.05838, 67.21688, 119.6928,  148.202, 329.1454, 123.4911, 77.35134, 30.13929, 58.85099, 66.25119, 32.82202, 60.02269, 31.17081, 112.4312,   30.331, 450.5505, 46.36594, 54.75351, 27.95847, 43.08881, 199.8664, 103.5354, 55.98023, 28.85383, 40.93016, 165.4626, 46.67103, 38.79495, 271.0929, 75.90629,  138.444, 219.3806,  34.6762, 45.94575, 26.72264, 97.84756, 136.4834, 127.5583, 61.22476,  287.363, 75.18233, 45.29831, 54.24707, 84.66707, 44.34904,  32.3951, 37.48673, 26.53374, 28.67115, 41.00058, 99.58026, 59.09187, 362.8542, 38.19617, 91.94652, 39.21242,  70.8132, 46.06911,  61.2748, 67.08602, 69.79907, 134.2101, 34.00467, 184.3293, 146.6298, 56.23083, 507.1411, 31.30656, 61.48788, 136.8287,  715.884, 141.6434, 53.12596, 150.8334,  278.407, 29.42599, 50.71701, 85.95213, 132.0124, 307.0081, 632.0956, 156.0301, 181.8153, 68.75884, 158.2346, 26.50478, 106.5339, 38.61275,    158.5, 113.0872, 91.39438, 208.9499, 43.29622, 55.73374, 42.48087, 58.69466, 107.2933,  86.0923, 491.7897, 116.9433, 423.0377, 116.1363, 48.00802, 134.2081, 88.39046, 513.7426, 373.3675, 636.1444, 65.36112, 214.0621, 185.8289, 137.3014, 41.29113, 122.1695, 318.1348, 89.21217, 69.80035, 278.3964, 269.7671, 352.5796,  71.6174, 98.49484,  631.381, 86.69333, 83.47002, 110.0212, 301.6077, 750.6479, 423.9269, 63.74969, 959.2745, 266.9699, 64.36235, 30.37752,  136.985, 177.0365, 148.5576, 959.2745, 333.0667, 188.2745, 50.86179, 44.84318, 45.49311, 80.56096,  329.364, 389.4878,  507.481, 152.5147, 73.09937, 76.97605, 214.8201, 117.8377, 528.3252, 290.7358, 42.04378, 617.4458, 298.2906, 162.0748, 226.9608, 425.5437, 363.6392, 235.2153, 241.7956, 201.3756, 101.6053, 322.5691, 341.3017, 90.68927, 49.95279, 159.1888, 110.3408, 750.6479, 138.5016,  43.7161, 188.6104, 56.56255, 122.9329, 54.32652, 51.58077,  631.381, 105.9299, 599.8805, 316.2483, 363.6392, 322.5691, 134.2872, 636.1444, 617.4458, 88.20865, 281.6573, 176.1447, 106.8419, 609.7173, 274.4017,  81.5937, 327.3443,  231.153, 264.0537, 200.6451, 235.0664, 274.4017, 382.8916,  124.104, 117.8864, 149.9489, 216.5288, 74.07359, 341.3017, 382.8916, 123.5539, 95.37233, 266.1149, 316.2483,  329.364,  715.884, 100.7151, 513.7426, 87.64115, 208.3756, 124.5946, 236.6034,  231.153, 318.1348,  101.405, 599.8805, 185.9729, 281.6573, 82.88195,  226.397, 104.0647, 217.6652, 446.3789, 169.1054, 528.3252, 76.50198, 269.7671, 109.5394, 423.0377, 188.7454, 290.7358, 122.4699, 491.7897, 528.3252, 176.1447, 147.9923, 95.75034, 150.8149,  507.481, 210.3847,  255.613, 128.6913, 609.7173, 264.0537, 191.6959,  224.041,  216.567, 203.0884, 389.4878, 750.6479, 599.8805, 179.0961, 266.1149, 183.9419, 232.2662,  202.412, 392.8248, 147.6586, 188.2745, 298.2906, 264.0537, 392.8248, 188.7454, 301.6077, 423.9269, 389.4878, 446.3789, 203.0884, 446.3789, 83.14391, 362.8542, 180.3745,  278.407, 446.3789, 327.3443, 217.6652, 193.5265, 244.4484, 232.2662, 180.8908, 97.27472,  507.481, 241.7956, 248.2282, 182.1887, 208.3756, 137.8095, 235.2153, 609.7173, 165.5716, 333.0667 ],
"Category": [ "Default", "Default", "Default", "Default", "Default", "Default", "Default", "Default", "Default", "Default", "Default", "Default", "Default", "Default", "Default", "Default", "Default", "Default", "Default", "Default", "Default", "Default", "Default", "Default", "Default", "Default", "Default", "Default", "Default", "Default", "Topic1", "Topic1", "Topic1", "Topic1", "Topic1", "Topic1", "Topic1", "Topic1", "Topic1", "Topic1", "Topic1", "Topic1", "Topic1", "Topic1", "Topic1", "Topic1", "Topic1", "Topic1", "Topic1", "Topic1", "Topic1", "Topic1", "Topic1", "Topic1", "Topic1", "Topic1", "Topic1", "Topic1", "Topic1", "Topic1", "Topic2", "Topic2", "Topic2", "Topic2", "Topic2", "Topic2", "Topic2", "Topic2", "Topic2", "Topic2", "Topic2", "Topic2", "Topic2", "Topic2", "Topic2", "Topic2", "Topic2", "Topic2", "Topic2", "Topic2", "Topic2", "Topic2", "Topic2", "Topic2", "Topic2", "Topic2", "Topic2", "Topic2", "Topic2", "Topic2", "Topic3", "Topic3", "Topic3", "Topic3", "Topic3", "Topic3", "Topic3", "Topic3", "Topic3", "Topic3", "Topic3", "Topic3", "Topic3", "Topic3", "Topic3", "Topic3", "Topic3", "Topic3", "Topic3", "Topic3", "Topic3", "Topic3", "Topic3", "Topic3", "Topic3", "Topic3", "Topic3", "Topic3", "Topic3", "Topic3", "Topic4", "Topic4", "Topic4", "Topic4", "Topic4", "Topic4", "Topic4", "Topic4", "Topic4", "Topic4", "Topic4", "Topic4", "Topic4", "Topic4", "Topic4", "Topic4", "Topic4", "Topic4", "Topic4", "Topic4", "Topic4", "Topic4", "Topic4", "Topic4", "Topic4", "Topic4", "Topic4", "Topic4", "Topic4", "Topic4", "Topic5", "Topic5", "Topic5", "Topic5", "Topic5", "Topic5", "Topic5", "Topic5", "Topic5", "Topic5", "Topic5", "Topic5", "Topic5", "Topic5", "Topic5", "Topic5", "Topic5", "Topic5", "Topic5", "Topic5", "Topic5", "Topic5", "Topic5", "Topic5", "Topic5", "Topic5", "Topic5", "Topic5", "Topic5", "Topic5", "Topic6", "Topic6", "Topic6", "Topic6", "Topic6", "Topic6", "Topic6", "Topic6", "Topic6", "Topic6", "Topic6", "Topic6", "Topic6", "Topic6", "Topic6", "Topic6", "Topic6", "Topic6", "Topic6", "Topic6", "Topic6", "Topic6", "Topic6", "Topic6", "Topic6", "Topic6", "Topic6", "Topic6", "Topic6", "Topic6", "Topic7", "Topic7", "Topic7", "Topic7", "Topic7", "Topic7", "Topic7", "Topic7", "Topic7", "Topic7", "Topic7", "Topic7", "Topic7", "Topic7", "Topic7", "Topic7", "Topic7", "Topic7", "Topic7", "Topic7", "Topic7", "Topic7", "Topic7", "Topic7", "Topic7", "Topic7", "Topic7", "Topic7", "Topic7", "Topic7", "Topic8", "Topic8", "Topic8", "Topic8", "Topic8", "Topic8", "Topic8", "Topic8", "Topic8", "Topic8", "Topic8", "Topic8", "Topic8", "Topic8", "Topic8", "Topic8", "Topic8", "Topic8", "Topic8", "Topic8", "Topic8", "Topic8", "Topic8", "Topic8", "Topic8", "Topic8", "Topic8", "Topic8", "Topic8", "Topic8", "Topic9", "Topic9", "Topic9", "Topic9", "Topic9", "Topic9", "Topic9", "Topic9", "Topic9", "Topic9", "Topic9", "Topic9", "Topic9", "Topic9", "Topic9", "Topic9", "Topic9", "Topic9", "Topic9", "Topic9", "Topic9", "Topic9", "Topic9", "Topic9", "Topic9", "Topic9", "Topic9", "Topic9", "Topic9", "Topic9", "Topic10", "Topic10", "Topic10", "Topic10", "Topic10", "Topic10", "Topic10", "Topic10", "Topic10", "Topic10", "Topic10", "Topic10", "Topic10", "Topic10", "Topic10", "Topic10", "Topic10", "Topic10", "Topic10", "Topic10", "Topic10", "Topic10", "Topic10", "Topic10", "Topic10", "Topic10", "Topic10", "Topic10", "Topic10", "Topic10", "Topic1", "Topic2", "Topic2", "Topic2", "Topic2", "Topic2", "Topic3", "Topic3", "Topic3", "Topic3", "Topic4", "Topic4", "Topic4", "Topic4", "Topic5", "Topic5", "Topic6", "Topic7", "Topic8", "Topic8", "Topic9", "Topic9", "Topic9", "Topic10", "Topic10", "Topic1", "Topic1", "Topic2", "Topic2", "Topic3", "Topic3", "Topic5", "Topic6", "Topic6", "Topic7", "Topic7", "Topic8", "Topic8", "Topic8", "Topic9", "Topic9", "Topic10", "Topic1", "Topic3", "Topic4", "Topic4", "Topic5", "Topic5", "Topic6", "Topic8", "Topic8", "Topic9", "Topic9", "Topic10", "Topic10", "Topic10", "Topic1", "Topic1", "Topic4", "Topic5", "Topic5", "Topic6", "Topic7", "Topic8", "Topic9", "Topic1", "Topic1", "Topic2", "Topic3", "Topic5", "Topic6", "Topic7", "Topic7", "Topic7", "Topic9", "Topic9", "Topic10", "Topic1", "Topic2", "Topic2", "Topic3", "Topic6", "Topic6", "Topic9", "Topic10", "Topic1", "Topic2", "Topic3", "Topic6", "Topic6", "Topic9", "Topic1", "Topic1", "Topic2", "Topic3", "Topic5", "Topic6", "Topic7", "Topic3", "Topic3", "Topic5", "Topic6", "Topic7", "Topic8", "Topic9", "Topic10", "Topic1", "Topic2", "Topic3", "Topic6", "Topic7", "Topic7", "Topic8", "Topic9", "Topic10", "Topic5", "Topic9", "Topic1", "Topic7", "Topic9", "Topic10", "Topic1", "Topic4", "Topic5", "Topic6", "Topic9", "Topic1", "Topic2", "Topic3", "Topic3", "Topic4", "Topic5", "Topic5", "Topic3", "Topic6", "Topic6", "Topic7", "Topic3", "Topic4", "Topic5", "Topic8", "Topic2", "Topic6", "Topic7", "Topic10", "Topic1", "Topic2", "Topic3", "Topic3", "Topic5", "Topic6", "Topic9", "Topic1", "Topic3", "Topic4", "Topic5", "Topic6", "Topic9", "Topic6", "Topic6", "Topic8", "Topic10", "Topic6", "Topic9", "Topic9", "Topic10", "Topic1", "Topic3", "Topic4", "Topic7", "Topic10", "Topic10", "Topic5", "Topic6", "Topic1", "Topic8", "Topic10", "Topic2", "Topic3", "Topic4", "Topic6", "Topic1", "Topic7", "Topic9", "Topic1", "Topic3", "Topic5", "Topic9", "Topic4", "Topic5", "Topic1", "Topic2", "Topic6", "Topic3", "Topic5", "Topic6", "Topic7", "Topic1", "Topic2", "Topic10", "Topic3", "Topic7", "Topic8", "Topic10", "Topic1", "Topic9", "Topic7", "Topic2", "Topic3", "Topic5", "Topic8", "Topic2", "Topic4", "Topic6", "Topic2", "Topic4", "Topic7", "Topic10", "Topic10", "Topic1", "Topic3", "Topic6", "Topic7", "Topic2", "Topic2", "Topic5", "Topic9", "Topic10", "Topic2", "Topic4", "Topic4", "Topic5", "Topic5", "Topic6", "Topic9", "Topic2", "Topic3", "Topic7", "Topic9", "Topic5", "Topic10", "Topic1", "Topic5", "Topic9", "Topic6", "Topic2", "Topic3", "Topic7", "Topic8", "Topic9", "Topic10", "Topic8", "Topic1", "Topic2", "Topic6", "Topic7", "Topic6", "Topic10", "Topic9", "Topic7", "Topic3", "Topic8", "Topic10", "Topic9", "Topic8", "Topic2", "Topic10", "Topic10", "Topic1", "Topic3", "Topic4", "Topic6", "Topic1", "Topic9", "Topic4", "Topic2", "Topic7", "Topic9", "Topic10", "Topic5", "Topic8", "Topic9", "Topic1", "Topic3", "Topic4", "Topic9", "Topic8", "Topic2", "Topic3", "Topic4", "Topic6", "Topic10", "Topic1", "Topic4", "Topic7", "Topic9", "Topic3", "Topic10", "Topic3", "Topic7", "Topic1", "Topic5", "Topic8", "Topic1", "Topic7", "Topic4", "Topic9", "Topic9", "Topic6", "Topic8", "Topic5", "Topic1", "Topic2", "Topic7", "Topic10", "Topic5", "Topic7", "Topic7", "Topic5", "Topic8", "Topic2", "Topic7", "Topic1", "Topic9", "Topic1", "Topic6", "Topic6", "Topic2" ] 
},
"token.table": {
 "Term": [ "ability", "ability", "ability", "ability", "acid", "acid", "acid", "acid", "aco", "acting", "action", "action", "action", "action", "active", "active", "active", "activities", "activities", "activities", "activities", "activity", "activity", "activity", "activity", "activity", "acute", "acute", "acute", "acyclic", "acyclovir", "addition", "addition", "addition", "addition", "addition", "addition", "adenosine", "adjuvants", "administration", "administration", "administration", "advances", "advances", "age", "agents", "agents", "agents", "agents", "agents", "agents", "agents", "agents", "algae", "alkaloids", "alkaloids", "alkaloids", "alterations", "amine", "amino", "amino", "amino", "analogs", "analogs", "analogues", "analysis", "analysis", "analysis", "analysis", "animal", "animal", "animal", "animal", "animal", "animals", "anti", "anti", "anti", "anti", "antibacterial", "antibacterial", "antibodies", "antibodies", "antibodies", "antibodies", "antibodies", "antibody", "antibody", "antigen", "antigen", "antimicrobial", "antimicrobial", "antimicrobial", "antioxidant", "antisense", "antiviral", "antiviral", "antiviral", "antiviral", "antivirals", "antivirals", "apoptosis", "applications", "applications", "approaches", "approaches", "approaches", "approval", "approved", "approved", "approved", "aptamer", "aptamers", "ards", "areas", "areas", "assay", "assay", "assay", "assays", "assays", "assays", "assays", "assessment", "assessment", "assessment", "ata", "atpase", "attachment", "attenuated", "aunps", "aureus", "bacteria", "bacteria", "bacterial", "bacterial", "bacterial", "bacterial", "bacterial", "bactericidal", "barriers", "based", "based", "based", "based", "based", "based", "basic", "basic", "basic", "binding", "binding", "binding", "bioactive", "biological", "biological", "biological", "biological", "biology", "biology", "biosensors", "biosynthesis", "bismuth", "blood", "blood", "blood", "blood", "blood", "bond", "bond", "bone", "broad", "broad", "broad", "broad", "broad", "calves", "cancer", "cancer", "cancer", "cancer", "cancer", "cardiovascular", "care", "care", "care", "carriers", "cathepsin", "cell", "cell", "cell", "cell", "cells", "cells", "cells", "cellular", "cellular", "cellular", "cellular", "cellular", "century", "chain", "chain", "chains", "channels", "characterization", "characterization", "chemical", "chemical", "chemical", "chemical", "chemical", "chikv", "chinese", "chinese", "chloroquine", "chloroquine", "chloroquine", "circumvent", "clinical", "coated", "coli", "comparative", "complex", "complex", "complex", "complex", "complex", "complexes", "complexes", "complexes", "components", "components", "components", "components", "components", "compound", "compound", "compound", "compounds", "compounds", "compounds", "concentration", "concentration", "concentration", "concentrations", "concern", "condition", "considered", "considered", "considered", "constituents", "containment", "content", "content", "contents", "contrast", "contrast", "contrast", "converted", "copd", "coronavirus", "coronavirus", "coronavirus", "coronavirus", "coronaviruses", "coronaviruses", "cov", "cov", "cov", "cpe", "current", "current", "current", "current", "current", "current", "current", "current", "cytokine", "cytopathic", "cytostatic", "cytotoxic", "cytotoxic", "cytotoxic", "cytotoxic", "cytotoxic", "cytotoxicity", "cytotoxicity", "cytotoxicity", "cytotoxicity", "database", "days", "decade", "decade", "decade", "decreased", "decreased", "defense", "defense", "defensin", "defensins", "defensins", "deliver", "delivered", "delivery", "dengue", "denv", "derivative", "derivative", "derivative", "derivatives", "derivatives", "design", "design", "design", "detection", "detection", "detection", "develop", "develop", "develop", "development", "development", "development", "development", "development", "developments", "diagnostic", "diagnostic", "diagnostics", "discuss", "discuss", "discuss", "discussion", "disease", "disease", "disease", "disease", "diseases", "diseases", "diseases", "diseases", "diseases", "diseases", "disorders", "disorders", "disorders", "display", "display", "dmd", "dna", "dna", "dna", "docking", "dose", "doses", "drug", "drug", "drug", "drug", "drugs", "drugs", "drugs", "drugs", "drugs", "due", "due", "due", "due", "due", "due", "due", "east", "east", "east", "ebola", "ebov", "ebov", "ebov", "economic", "effect", "effect", "effect", "effect", "effective", "effective", "effective", "effective", "effective", "effective", "effective", "effects", "effects", "effects", "effects", "effects", "efficient", "efficient", "efficient", "efficient", "emerging", "emerging", "emerging", "emodin", "enabled", "encephalitis", "engineering", "engineering", "entry", "enveloped", "enzyme", "enzyme", "enzyme", "epac", "escherichia", "essential", "essential", "essential", "essential", "essential", "ester", "ester", "evaluated", "evaluated", "evaluated", "evd", "examples", "examples", "exhibited", "exhibited", "existing", "existing", "exon", "experimental", "experimental", "experimental", "expression", "expression", "extract", "extract", "extraction", "extracts", "factors", "factors", "factors", "factors", "failure", "falciparum", "fas", "fcv", "fda", "fda", "fda", "feed", "feline", "fever", "fever", "fever", "fever", "field", "field", "field", "flavonoids", "flavonoids", "flavonoids", "fluorescence", "fluorescence", "focuses", "focuses", "food", "food", "food", "food", "found", "found", "found", "found", "found", "found", "fully", "fully", "functional", "functional", "functional", "functional", "gastrointestinal", "gastrointestinal", "gene", "gene", "gene", "gene", "gene", "genes", "genes", "genes", "genetically", "genomics", "genomics", "genotype", "global", "global", "glycoproteins", "glycyrrhiza", "gold", "gold", "gondii", "good", "good", "good", "good", "good", "gram", "griffithsin", "group", "group", "group", "group", "groups", "groups", "groups", "groups", "gut", "hbv", "hcv", "hcv", "health", "health", "health", "health", "health", "healthy", "hel", "helicase", "hepatitis", "herbal", "herbs", "high", "high", "high", "high", "high", "high", "high", "high", "highly", "highly", "highly", "highly", "highly", "highly", "hit", "hit", "hit", "hits", "hiv", "hiv", "hiv", "host", "host", "host", "hplc", "hsv", "hsv", "hts", "human", "human", "human", "human", "human", "humans", "humans", "hybrid", "hydroxyl", "identified", "identified", "identified", "identified", "imaging", "immune", "immune", "immunity", "immunity", "immunity", "immunodeficiency", "immunodeficiency", "immunogenicity", "immunogenicity", "immunology", "important", "important", "important", "important", "important", "important", "improving", "improving", "including", "including", "including", "including", "including", "including", "including", "increased", "increased", "increased", "increasing", "increasing", "increasing", "increasing", "increasing", "index", "indications", "indigotica", "individuals", "induced", "induced", "induced", "induced", "induced", "infected", "infected", "infection", "infection", "infection", "infections", "infections", "infections", "infectious", "infectious", "inflammation", "inflammation", "influenza", "influenza", "ingredients", "inhibit", "inhibit", "inhibit", "inhibit", "inhibited", "inhibited", "inhibiting", "inhibiting", "inhibiting", "inhibiting", "inhibition", "inhibition", "inhibition", "inhibition", "inhibitor", "inhibitor", "inhibitor", "inhibitors", "inhibitors", "inhibitory", "inhibitory", "inhibitory", "innate", "innate", "innate", "inorganic", "interactions", "interactions", "interactions", "interference", "interfering", "interfering", "interfering", "interferon", "interferon", "intestinal", "intracellular", "intracellular", "intracellular", "intracellular", "isolated", "isolated", "isolated", "japonica", "jev", "knowledge", "knowledge", "large", "large", "large", "large", "large", "lead", "lead", "lead", "lead", "leaf", "lectins", "lectins", "lectins", "lectins", "led", "led", "led", "led", "led", "led", "library", "library", "library", "licorice", "light", "light", "light", "light", "line", "line", "line", "linker", "lipid", "live", "load", "low", "low", "low", "low", "low", "low", "mab", "mab", "mabs", "mabs", "major", "major", "major", "major", "major", "malaria", "mammalian", "mammalian", "mammalian", "mammalian", "management", "management", "manner", "manner", "manner", "manufacturing", "manufacturing", "marine", "marine", "material", "material", "material", "materials", "materials", "materials", "mechanism", "mechanism", "mechanism", "mechanism", "mechanisms", "mechanisms", "mechanisms", "mechanisms", "mechanisms", "mechanisms", "mechanisms", "medicinal", "medicine", "medicine", "medicine", "medicine", "medicines", "medicines", "membrane", "membrane", "membrane", "mers", "metabolites", "metal", "metal", "methanol", "method", "method", "method", "method", "methods", "methods", "methods", "methods", "methods", "methods", "mic", "microarray", "microarrays", "microorganisms", "microorganisms", "microorganisms", "middle", "milk", "model", "model", "model", "model", "model", "modeling", "modeling", "models", "models", "models", "models", "models", "moderate", "moderate", "moderate", "modern", "modulation", "moiety", "moiety", "molecular", "molecular", "molecule", "molecule", "molecule", "molecule", "molecule", "molecule", "molecules", "molecules", "molecules", "molecules", "molecules", "mono", "morbidity", "mrna", "mrsa", "mtt", "mucosal", "nanomaterials", "nanoparticles", "natural", "natural", "natural", "natural", "natural", "natural", "natural", "negative", "negative", "networks", "niclosamide", "nmr", "norovirus", "norovirus", "novo", "nps", "nucleoside", "nucleosides", "obtained", "obtained", "obtained", "obtained", "options", "options", "oral", "oral", "oral", "organic", "outcomes", "oxide", "parallel", "parameters", "particles", "particles", "past", "pathogens", "pathogens", "pathogens", "pathogens", "pathogens", "pathogens", "pathogens", "pathology", "patient", "patient", "patients", "pcr", "pedv", "pedv", "peg", "people", "people", "peptide", "peptide", "peptide", "peptide", "peptides", "peptides", "pharmaceuticals", "pharmacological", "pharmacological", "pharmacological", "pharmacological", "pharmacology", "pharmacology", "pharmacophore", "phosphorylation", "physiological", "physiological", "pig", "pigs", "plant", "plant", "plant", "plant", "plants", "plants", "plasma", "plasma", "play", "play", "play", "play", "plga", "plpro", "poly", "polymer", "polymer", "polymerase", "polymerase", "polymers", "population", "population", "population", "position", "potassium", "potent", "potent", "potent", "potent", "potential", "potential", "potential", "potential", "potential", "potential", "potential", "practical", "prediction", "prediction", "prepared", "prepared", "prepared", "prepared", "present", "present", "present", "present", "present", "present", "present", "pro", "pro", "process", "process", "process", "process", "processes", "processes", "processes", "produced", "produced", "product", "product", "product", "product", "product", "production", "production", "production", "products", "products", "products", "products", "properties", "properties", "protease", "protease", "protease", "protease", "proteases", "proteases", "proteases", "protein", "protein", "protein", "protein", "proteins", "proteins", "proteins", "proteins", "proteomic", "protocol", "provide", "provide", "provide", "prrsv", "pubchem", "public", "public", "public", "public", "pyrimidine", "qsar", "quercetin", "quercetin", "radix", "range", "range", "range", "range", "range", "rats", "rats", "reaction", "reactions", "reactions", "reactions", "reactions", "recent", "recent", "recent", "recent", "recognition", "recombinant", "recombinant", "recombinant", "reduced", "reduced", "reduced", "reduced", "reduced", "reduction", "reduction", "reduction", "reduction", "regulation", "regulation", "regulation", "replication", "replication", "replication", "reporter", "repurposing", "research", "research", "research", "research", "research", "research", "resistance", "resistance", "resistance", "resistance", "resistant", "resistant", "resistant", "respiratory", "respiratory", "respiratory", "responses", "responses", "results", "results", "results", "results", "results", "results", "results", "review", "review", "review", "ribavirin", "rice", "ring", "rna", "rna", "rna", "rnai", "rnai", "rnas", "rnas", "role", "role", "role", "role", "role", "root", "roots", "roots", "rsv", "safety", "safety", "safety", "safety", "sar", "sars", "scaffold", "scaffold", "scaffold", "scaffold", "scale", "scale", "scale", "scheme", "sci", "screen", "screen", "screen", "screening", "screening", "screening", "screening", "screening", "scv", "scv", "secondary", "secondary", "sensing", "sequence", "sequence", "sequence", "sequence", "sequences", "sequencing", "series", "series", "series", "set", "set", "set", "severe", "severe", "severe", "severe", "short", "short", "short", "showed", "showed", "showed", "showed", "showed", "significant", "significant", "significant", "significant", "significant", "significant", "significant", "significantly", "significantly", "significantly", "significantly", "silencing", "silver", "similarity", "sinensis", "sirna", "sirnas", "site", "site", "size", "size", "size", "size", "small", "small", "small", "small", "solution", "solution", "species", "species", "species", "specific", "specific", "specific", "specific", "spectroscopy", "spectrum", "spectrum", "spectrum", "spectrum", "spectrum", "staphylococcus", "status", "strains", "strains", "strains", "strains", "structure", "structure", "structure", "structure", "structure", "structures", "structures", "structures", "structures", "studies", "studies", "studies", "studies", "studies", "studies", "studies", "study", "study", "study", "study", "substituent", "substituents", "substituted", "substituted", "subunit", "success", "sugar", "suppressed", "surface", "surface", "surface", "surface", "surfaces", "surfaces", "survival", "susceptibility", "syndrome", "synthesis", "synthesis", "synthesis", "synthesized", "synthesized", "synthesized", "system", "system", "system", "system", "systems", "systems", "systems", "tannins", "target", "target", "target", "targeted", "targeted", "targeted", "targeting", "targeting", "targeting", "targets", "targets", "targets", "tcm", "techniques", "techniques", "techniques", "technologies", "technologies", "technology", "technology", "temperature", "temperature", "temperature", "therapeutic", "therapeutic", "therapeutic", "therapeutic", "therapeutics", "therapeutics", "therapeutics", "therapies", "therapies", "therapies", "therapy", "therapy", "therapy", "time", "time", "time", "time", "time", "time", "time", "time", "tio", "tools", "tools", "total", "total", "total", "traditional", "traditional", "traditional", "transgenic", "translation", "translational", "transport", "treat", "treat", "treat", "treat", "treated", "treated", "treated", "treatment", "treatment", "treatment", "treatment", "treatments", "treatments", "treatments", "treatments", "trial", "trials", "trials", "tumor", "tumor", "tumor", "type", "type", "type", "type", "type", "type", "understanding", "understanding", "urgent", "vaccination", "vaccination", "vaccine", "vaccine", "vaccine", "vaccines", "validated", "validated", "validated", "vectors", "vectors", "vero", "vero", "vero", "veterinary", "veterinary", "veterinary", "viability", "viability", "viral", "virology", "virtual", "virtual", "virucidal", "virus", "viruses", "viruses", "vitro", "vitro", "vitro", "vitro", "vitro", "vivo", "vivo", "vivo", "vivo", "vzv", "water", "water", "western", "worldwide", "worldwide", "worldwide", "yields", "yields", "yields", "zika", "zikv" ],
"Topic": [ 2, 5, 6, 7, 6, 7, 8, 10, 10, 4, 3, 6, 8, 9, 5, 8, 10, 2, 6, 8, 10, 3, 5, 6, 8, 10, 4, 5, 6, 10, 4, 2, 3, 4, 6, 7, 9, 10, 2, 2, 8, 9, 1, 3, 9, 1, 3, 4, 5, 6, 7, 9, 10, 8, 5, 8, 10, 9, 10, 2, 5, 10, 4, 10, 10, 1, 5, 7, 8, 1, 2, 3, 8, 9, 9, 4, 6, 8, 10, 7, 8, 1, 2, 3, 8, 10, 1, 2, 2, 3, 7, 8, 9, 8, 2, 3, 4, 9, 10, 4, 6, 6, 1, 7, 1, 2, 3, 3, 2, 3, 4, 1, 1, 3, 1, 3, 5, 6, 9, 4, 5, 6, 10, 6, 8, 9, 6, 4, 4, 2, 7, 7, 3, 7, 1, 2, 7, 8, 10, 7, 2, 1, 2, 3, 4, 5, 7, 1, 4, 10, 4, 5, 7, 8, 1, 6, 8, 10, 1, 3, 1, 8, 5, 2, 5, 6, 7, 9, 5, 10, 9, 1, 2, 4, 7, 10, 9, 1, 2, 5, 6, 9, 9, 1, 6, 9, 2, 5, 1, 2, 4, 6, 2, 6, 9, 1, 2, 3, 4, 10, 1, 2, 10, 10, 6, 1, 10, 1, 2, 5, 7, 8, 6, 5, 8, 2, 3, 9, 3, 3, 7, 7, 5, 1, 2, 5, 9, 10, 1, 2, 10, 1, 4, 7, 8, 9, 5, 6, 10, 5, 8, 10, 4, 5, 6, 6, 3, 9, 2, 4, 9, 8, 3, 6, 8, 8, 3, 6, 7, 10, 3, 4, 5, 6, 8, 4, 5, 5, 6, 9, 6, 1, 2, 3, 4, 5, 8, 9, 10, 9, 6, 10, 4, 5, 6, 8, 10, 1, 6, 9, 10, 5, 6, 1, 6, 9, 6, 10, 7, 9, 9, 4, 9, 2, 2, 2, 4, 4, 4, 8, 10, 6, 10, 1, 2, 5, 1, 4, 8, 1, 3, 5, 1, 2, 3, 5, 8, 1, 1, 9, 1, 1, 3, 4, 1, 2, 3, 8, 9, 1, 2, 3, 8, 9, 10, 5, 8, 9, 1, 2, 2, 1, 2, 10, 5, 6, 6, 2, 3, 5, 7, 3, 4, 5, 8, 10, 2, 3, 4, 5, 7, 8, 10, 3, 5, 9, 4, 3, 4, 10, 3, 6, 7, 9, 10, 2, 3, 4, 5, 6, 8, 9, 3, 4, 6, 8, 9, 1, 2, 5, 7, 1, 3, 10, 6, 1, 4, 1, 3, 4, 4, 4, 5, 10, 5, 7, 1, 3, 5, 8, 9, 2, 10, 2, 6, 10, 9, 1, 3, 6, 10, 3, 6, 2, 3, 5, 9, 2, 6, 6, 8, 8, 8, 1, 2, 3, 7, 3, 3, 10, 4, 3, 6, 9, 9, 4, 4, 8, 9, 10, 1, 5, 7, 1, 8, 9, 5, 7, 3, 6, 2, 7, 8, 9, 5, 6, 7, 8, 9, 10, 5, 9, 1, 2, 5, 10, 8, 9, 1, 2, 4, 6, 9, 2, 3, 8, 2, 1, 10, 4, 3, 7, 4, 8, 7, 8, 6, 2, 5, 7, 9, 10, 7, 4, 2, 3, 6, 10, 1, 5, 6, 10, 9, 4, 4, 5, 1, 3, 4, 7, 9, 9, 10, 5, 4, 8, 8, 1, 3, 4, 5, 6, 7, 8, 10, 2, 3, 4, 5, 7, 10, 5, 6, 10, 5, 1, 3, 4, 1, 3, 4, 8, 4, 8, 5, 2, 3, 4, 5, 9, 4, 9, 7, 10, 3, 4, 5, 8, 7, 2, 9, 1, 2, 9, 2, 4, 2, 7, 1, 1, 4, 5, 7, 8, 9, 1, 9, 1, 3, 4, 5, 7, 8, 9, 6, 7, 9, 3, 4, 7, 8, 9, 6, 3, 8, 3, 1, 2, 4, 6, 7, 4, 6, 3, 4, 6, 3, 4, 9, 2, 3, 8, 9, 1, 4, 8, 2, 4, 5, 6, 4, 6, 1, 5, 6, 8, 4, 5, 6, 10, 4, 5, 8, 4, 5, 5, 6, 10, 2, 4, 9, 7, 1, 4, 5, 2, 2, 6, 8, 4, 6, 9, 2, 4, 6, 7, 4, 8, 10, 8, 6, 1, 9, 1, 2, 4, 7, 10, 1, 4, 5, 9, 8, 2, 4, 8, 10, 1, 2, 3, 5, 9, 10, 3, 5, 7, 8, 1, 7, 9, 10, 2, 5, 6, 10, 9, 2, 9, 1, 4, 6, 7, 8, 10, 2, 3, 3, 5, 1, 2, 3, 7, 8, 3, 2, 3, 5, 10, 3, 6, 1, 4, 6, 3, 9, 8, 9, 1, 7, 10, 1, 7, 8, 2, 4, 5, 6, 1, 3, 4, 6, 7, 8, 9, 8, 1, 4, 8, 9, 1, 8, 2, 4, 7, 5, 8, 7, 10, 8, 5, 7, 8, 10, 1, 3, 4, 5, 8, 10, 7, 1, 1, 3, 7, 8, 5, 9, 2, 5, 7, 8, 9, 5, 8, 2, 4, 5, 9, 10, 1, 9, 10, 1, 9, 5, 10, 1, 5, 1, 2, 3, 4, 5, 10, 1, 2, 5, 8, 10, 10, 3, 2, 7, 6, 2, 7, 7, 2, 4, 5, 7, 8, 9, 10, 2, 7, 1, 6, 10, 1, 4, 5, 7, 10, 10, 5, 6, 7, 10, 3, 6, 2, 7, 9, 7, 3, 7, 1, 7, 2, 7, 1, 1, 2, 3, 4, 7, 8, 9, 9, 1, 3, 3, 6, 6, 10, 7, 3, 9, 2, 5, 6, 8, 2, 7, 9, 3, 6, 7, 8, 8, 10, 5, 6, 9, 10, 9, 9, 1, 3, 6, 8, 1, 8, 3, 9, 6, 7, 9, 10, 7, 5, 7, 5, 7, 4, 8, 7, 3, 8, 10, 10, 6, 4, 5, 6, 10, 1, 2, 3, 4, 5, 6, 9, 1, 2, 5, 5, 7, 8, 10, 2, 3, 5, 6, 7, 8, 9, 5, 6, 1, 7, 9, 10, 1, 7, 9, 7, 8, 1, 3, 5, 9, 10, 2, 8, 9, 3, 4, 8, 9, 7, 8, 5, 6, 7, 10, 5, 6, 9, 1, 2, 5, 8, 1, 2, 4, 9, 1, 5, 1, 3, 5, 6, 5, 1, 3, 8, 9, 10, 5, 6, 8, 8, 1, 4, 5, 7, 10, 4, 9, 10, 3, 8, 9, 10, 1, 3, 8, 9, 1, 2, 6, 9, 2, 4, 6, 8, 10, 6, 7, 8, 9, 2, 8, 9, 1, 4, 8, 2, 3, 1, 4, 5, 6, 8, 9, 3, 4, 7, 8, 3, 4, 7, 3, 4, 5, 1, 2, 2, 3, 5, 6, 7, 8, 9, 1, 3, 9, 4, 6, 10, 2, 4, 10, 2, 4, 1, 2, 1, 5, 6, 8, 9, 8, 8, 10, 4, 2, 7, 8, 9, 10, 5, 4, 6, 9, 10, 1, 2, 9, 10, 9, 4, 5, 9, 3, 5, 6, 7, 8, 3, 5, 2, 8, 7, 1, 2, 5, 9, 2, 1, 5, 9, 10, 1, 3, 5, 3, 4, 5, 7, 1, 2, 6, 2, 6, 7, 9, 10, 1, 2, 3, 4, 6, 7, 10, 4, 6, 8, 10, 2, 7, 5, 8, 2, 2, 5, 7, 2, 5, 7, 9, 1, 2, 5, 9, 5, 7, 7, 8, 9, 1, 2, 3, 4, 7, 2, 4, 5, 6, 7, 7, 3, 4, 6, 7, 9, 1, 5, 6, 7, 8, 3, 5, 7, 10, 1, 3, 4, 5, 6, 8, 9, 5, 6, 7, 8, 10, 10, 8, 10, 2, 3, 10, 6, 1, 2, 5, 7, 7, 10, 6, 7, 5, 1, 7, 10, 2, 6, 10, 1, 2, 8, 9, 1, 8, 9, 9, 2, 4, 5, 1, 2, 4, 2, 4, 5, 1, 4, 5, 8, 1, 2, 9, 1, 7, 1, 2, 6, 7, 10, 2, 3, 8, 10, 2, 3, 4, 2, 3, 6, 2, 3, 6, 1, 2, 3, 4, 6, 7, 8, 9, 7, 1, 2, 6, 7, 8, 4, 5, 8, 2, 2, 1, 9, 3, 4, 8, 9, 4, 6, 8, 2, 3, 6, 7, 2, 3, 7, 9, 3, 1, 3, 2, 6, 8, 2, 4, 5, 7, 8, 9, 1, 4, 3, 2, 9, 2, 3, 6, 2, 1, 5, 9, 2, 4, 4, 6, 10, 1, 6, 9, 2, 6, 4, 1, 4, 5, 6, 4, 4, 5, 2, 3, 5, 6, 9, 2, 6, 8, 9, 10, 7, 8, 6, 2, 3, 4, 1, 3, 10, 4, 4 ],
"Freq": [ 0.2832771, 0.03237453, 0.153779, 0.5260861, 0.4367009, 0.003550414, 0.1704199, 0.3905455, 0.9958547, 0.9945495, 0.1538164, 0.8203544, 0.006409019, 0.01281804, 0.4620273, 0.2840331, 0.2499492, 0.003162072, 0.2339933, 0.439528, 0.3225314, 0.001042454, 0.03231609, 0.5170574, 0.003127363, 0.4461705, 0.09468219, 0.7574575, 0.1383817, 0.9958547, 0.9763969, 0.1132512, 0.04431568, 0.3889932, 0.1181751, 0.2658941, 0.0689355, 0.9958547, 0.9983009, 0.4194089, 0.01048522, 0.566202, 0.9093884, 0.08623511, 0.9900833, 0.002836239, 0.6466625, 0.1985367, 0.008508717, 0.05388854, 0.05672478, 0.01418119, 0.01985367, 0.9967543, 0.04843655, 0.9445128, 0.02421828, 0.9700971, 0.9811487, 0.01412166, 0.08472997, 0.8896646, 0.1758508, 0.8133099, 0.9973644, 0.1394739, 0.3423451, 0.122568, 0.3972893, 0.006309147, 0.170347, 0.04416403, 0.006309147, 0.7634068, 0.9927258, 0.2233473, 0.5299766, 0.2138834, 0.03217715, 0.7958556, 0.2017662, 0.6721577, 0.06910033, 0.2512739, 0.006281848, 0.006281848, 0.8408301, 0.1515009, 0.9879005, 0.009879005, 0.7975126, 0.05500087, 0.1485024, 0.986155, 0.9767772, 0.001116037, 0.9687203, 0.001116037, 0.02901697, 0.9843349, 0.01047165, 0.9982145, 0.8853055, 0.1106632, 0.8463116, 0.05967582, 0.09222626, 0.9784356, 0.05054094, 0.6786926, 0.267145,  0.99291, 0.9940859, 0.9533765, 0.9333803, 0.04341304, 0.08005347, 0.9156115, 0.005003342, 0.007300071, 0.2263022, 0.7519073, 0.01460014, 0.03772905, 0.03772905, 0.9054972, 0.9858074, 0.9717623, 0.9765279, 0.9631982, 0.989181, 0.9768511, 0.01841223, 0.9758483, 0.1312991, 0.01094159, 0.831561, 0.01094159, 0.01094159, 0.9688942, 0.9810894, 0.3000598, 0.2283788, 0.001666999, 0.04334196, 0.3634057, 0.06334595, 0.9483109, 0.01935328, 0.01935328, 0.02224859, 0.9744881, 0.004449718, 0.9962044, 0.5984815, 0.003439549, 0.1272633, 0.2717243, 0.993543, 0.007948344, 0.9791967, 0.9844059, 0.9755092, 0.01575692, 0.01575692, 0.01575692, 0.01575692, 0.9454155, 0.03487827, 0.9417133, 0.9621046, 0.06457554, 0.01076259, 0.7533813, 0.05381295, 0.1183885, 0.938377, 0.007288583, 0.4883351, 0.003644292, 0.4956237, 0.003644292, 0.9664705, 0.05881545, 0.02940772, 0.9116394, 0.9958003, 0.988376, 0.00158383, 0.3896221, 0.01900596, 0.5891846, 0.3772728, 0.6225001, 0.00157197, 0.3602676, 0.5377128, 0.02150851, 0.0752798, 0.005377128, 0.9890788, 0.04285314, 0.942769, 0.9526754, 0.9679682, 0.9586632, 0.02282531, 0.1616087, 0.004753198, 0.2946983, 0.2994515, 0.2376599, 0.977843, 0.009061132, 0.9876634, 0.01823974, 0.9484662, 0.03647947, 0.9319048, 0.998433, 0.9826987, 0.9863223, 0.9538084, 0.7239723, 0.008134521, 0.1952285, 0.008134521, 0.05694164, 0.01368001, 0.2599202, 0.7250405, 0.3742947, 0.009129138, 0.07303311,  0.52949, 0.009129138, 0.2722635, 0.327567, 0.3956329, 0.532873, 0.1318861, 0.3343778, 0.007378453, 0.007378453, 0.9813343, 0.9960335, 0.9720243, 0.9623268, 0.0580772, 0.1510007,  0.78985, 0.986155, 0.9738341, 0.02325533, 0.9767237, 0.9592269, 0.09513892, 0.02378473, 0.880035, 0.9958547, 0.9274555, 0.01030949, 0.979402, 0.005154747, 0.01030949, 0.1192613, 0.8689036, 0.9864166, 0.006946596, 0.003473298, 0.9768476, 0.1775186, 0.009343082, 0.7240889, 0.01401462, 0.004671541, 0.009343082, 0.05605849, 0.004671541, 0.9450284, 0.968292, 0.987987, 0.01432684, 0.01432684, 0.9025909, 0.02865368, 0.04298052, 0.009842005, 0.7775184, 0.009842005, 0.2066821, 0.9913231, 0.966693, 0.9512061, 0.0243899, 0.0243899, 0.9709944, 0.02697207, 0.0320813, 0.962439, 0.9623268, 0.02749516, 0.9623306, 0.9878929, 0.9574898, 0.9989284, 0.9847105, 0.9910358, 0.02577655, 0.02577655, 0.9537324, 0.005472418, 0.9959801, 0.4693398, 0.1333913, 0.3952335, 0.9854007, 0.01119773, 0.01119773, 0.06608142, 0.7268956, 0.1982443, 0.1392194, 0.09175827, 0.7150817, 0.05062525, 0.001582039, 0.9891346, 0.9150651, 0.08971226,  0.99291, 0.7487698, 0.2246309, 0.01871924, 0.9664688, 0.008267784, 0.8212666, 0.002755928, 0.1681116, 0.002219507, 0.002219507, 0.8833638, 0.01997556, 0.09099978, 0.002219507, 0.02550212, 0.05100425, 0.9180765, 0.9309959, 0.04899979, 0.9611841, 0.0684021, 0.7980245, 0.133547, 0.9961455, 0.9921274, 0.9789962, 0.001396874, 0.7249778, 0.2723905, 0.001396874, 0.776904, 0.1104229, 0.1084511, 0.001971838, 0.001971838, 0.2015228, 0.248028, 0.1550175, 0.03617076, 0.248028, 0.1085123, 0.005167251, 0.05179636, 0.9323345, 0.02589818, 0.9911402, 0.01826367, 0.9679745, 0.01826367, 0.9784356, 0.974101, 0.01487177, 0.003717943, 0.007435886, 0.1645374, 0.3943675, 0.3891441, 0.002611705, 0.04439899, 0.002611705, 0.002611705, 0.01283737, 0.02310727, 0.5828167, 0.1874256, 0.195128, 0.03012645, 0.9138357, 0.01004215, 0.05021075, 0.1482596, 0.833078, 0.01411997, 0.9995433, 0.9710877, 0.972933, 0.985824, 0.01471379, 0.9929692, 0.9946228, 0.04525375, 0.825881, 0.1244478, 0.993594, 0.954614, 0.00986145, 0.00986145, 0.3747351, 0.6015485, 0.00986145, 0.03704954, 0.9632881, 0.005677149, 0.5222978, 0.4655263, 0.9897892, 0.9801771, 0.02000361, 0.5594784, 0.4351499, 0.8943741, 0.08943741, 0.9975267, 0.02405468, 0.4209568, 0.5532576, 0.8838994, 0.1148373, 0.008296641, 0.9873003, 0.9848291, 0.9947538, 0.2090507, 0.009089161, 0.7725787, 0.009089161, 0.9755686, 0.9319048, 0.9937841, 0.9984011, 0.9575552, 0.01450841, 0.02901683, 0.9900833, 0.9946054, 0.9416003, 0.02354001, 0.02354001, 0.02354001, 0.8489021, 0.00884273, 0.1414837, 0.01509407, 0.9509263, 0.03018814, 0.1938707, 0.7948698, 0.9605895, 0.03001842, 0.01350009, 0.2700018, 0.06750044, 0.6345042, 0.04090843, 0.3681759, 0.1431795, 0.208633, 0.01636337, 0.2249964, 0.02793864, 0.9778524, 0.6777173, 0.2041317, 0.02449581, 0.08981796, 0.03465745, 0.9357511, 0.01109092, 0.9760005, 0.003696972, 0.003696972, 0.003696972, 0.8185351, 0.008185351, 0.1718924, 0.9653005, 0.9561174, 0.03296957, 0.9476868, 0.9901779, 0.0150027, 0.9945005, 0.9764883, 0.9621993, 0.03317929, 0.9889789, 0.01241296, 0.1241296, 0.07447776, 0.0620648, 0.7199517, 0.9727197, 0.987734, 0.009386684, 0.009386684, 0.1689603, 0.8166415, 0.05817192, 0.0698063, 0.02326877, 0.8376756, 0.9993749, 0.9946473, 0.9909078, 0.006833847, 0.005311393, 0.6692355, 0.005311393, 0.01062279, 0.3080608, 0.9792203, 0.9526754, 0.9755676, 0.9958702, 0.9953939, 0.9986736, 0.2464274, 0.02688299, 0.2038627, 0.2038627, 0.02688299, 0.2262652, 0.06496723, 0.002240249, 0.2634632, 0.005488816, 0.208575, 0.2524855, 0.2524855, 0.01097763, 0.9582655, 0.03194218, 0.03194218, 0.9596921, 0.01839149, 0.01226099, 0.9686183, 0.3381877, 0.003315565, 0.6597975, 0.9974419, 0.9763288, 0.02712025, 0.9720406, 0.1360443, 0.003239151, 0.3482087, 0.09555495, 0.4162309, 0.4468049, 0.5560239, 0.9717816, 0.9752187, 0.01321814, 0.1806479, 0.5992224, 0.1982721, 0.9818743, 0.7080182, 0.2891383, 0.0169228, 0.9476769, 0.0338456, 0.02011488, 0.9856292, 0.9742225, 0.02435556, 0.9586521, 0.3325339, 0.02347298, 0.1251892, 0.0547703, 0.191696, 0.2699393, 0.03768786, 0.9421965, 0.1680138, 0.2749317, 0.2443837, 0.06109593, 0.06873292, 0.1171005, 0.0636416, 0.8295022, 0.149124, 0.0186405, 0.2261636, 0.09252147, 0.4523272, 0.01028016, 0.2158834, 0.9819415, 0.9915154, 0.9874432, 0.9835933, 0.007451005, 0.04470603, 0.02235301, 0.8643166, 0.05215703, 0.6285052, 0.3625992, 0.02347859, 0.9626223, 0.0117393, 0.5363192, 0.4557163, 0.003100111, 0.004516371, 0.9936016, 0.1183035, 0.8872764, 0.003785383, 0.9955559, 0.9551268, 0.01811905, 0.4348571, 0.006039682, 0.5435714, 0.3351026, 0.6627584, 0.0487901, 0.03252674, 0.8944852, 0.01626337, 0.06742333, 0.2584561, 0.6667418, 0.007491481, 0.03373774, 0.9311615, 0.03373774, 0.04369862, 0.9559073, 0.2678627, 0.5172521, 0.2124428, 0.03208921, 0.0160446, 0.9626763, 0.9643721, 0.6013827, 0.04729977, 0.3446126, 0.9862591, 0.9717201, 0.01833434, 0.01833434, 0.9373433, 0.06248956, 0.9892604, 0.8444185, 0.1299105, 0.01299105, 0.01299105, 0.009658531, 0.9368775, 0.04829266, 0.9592269, 0.9942595, 0.4804161, 0.5221914, 0.8593069, 0.06819896, 0.02045969, 0.02045969, 0.02045969, 0.01490222, 0.1937289, 0.7823668, 0.01490222, 0.9967543, 0.03932225, 0.9044118, 0.01966113, 0.01966113, 0.2091449, 0.06535778, 0.06535778, 0.01307156, 0.01307156, 0.6274347, 0.0136517, 0.9829222, 0.0136517, 0.9862071, 0.01292802, 0.9566738, 0.01292802, 0.01292802, 0.0217648, 0.0217648, 0.9358863, 0.9653919, 0.9872591,   0.9879, 0.9450284, 0.02211278, 0.1326767, 0.2432406, 0.2598252, 0.1603177, 0.1879587, 0.0402424, 0.9658175, 0.9658529, 0.02682925, 0.2955206, 0.06926263, 0.4432808, 0.009235017, 0.1847003, 0.9755686, 0.9425435, 0.01778384, 0.01778384, 0.01778384, 0.962655, 0.0385062, 0.01843418, 0.05530253, 0.9217088, 0.02839238, 0.9653409, 0.989228, 0.01766479, 0.1143743, 0.8463701, 0.02287487, 0.0708658, 0.9094445, 0.01181097, 0.1524861, 0.006629831, 0.006629831, 0.8353587, 0.194373, 0.07475885, 0.2143087, 0.004983924, 0.02990354, 0.06479101, 0.4236335, 0.9909094, 0.1639186, 0.006556743, 0.6819013, 0.1508051, 0.02325069, 0.9765291, 0.0793573, 0.2720822, 0.6461951, 0.9975967, 0.989923, 0.820775, 0.1601512, 0.9592269, 0.3927979, 0.3521636, 0.07449615, 0.1760818, 0.6079514, 0.004135724, 0.02067862, 0.1116645, 0.2316005, 0.02481434, 0.9688942,  0.99291, 0.9805197, 0.0225484, 0.9470329, 0.0225484, 0.999542, 0.9993749, 0.004785836, 0.2727927, 0.004785836, 0.004785836, 0.7178754, 0.9754413, 0.02709559, 0.07907972, 0.005648552, 0.276779, 0.6326378, 0.005648552, 0.06583817, 0.03291908, 0.8888153, 0.9890963, 0.9828884, 0.02694786, 0.9701231, 0.4280978, 0.5707971, 0.1929035, 0.01015282, 0.01015282, 0.01015282, 0.771614, 0.01015282, 0.4418834, 0.2142465, 0.1785388, 0.02231735, 0.142831, 0.9575556, 0.9687475, 0.9879162, 0.989181, 0.9768476, 0.9946007, 0.9701025, 0.9949248, 0.005301935, 0.08483096, 0.1060387, 0.1219445, 0.572609, 0.01060387, 0.1007368, 0.02931059, 0.9672494, 0.9923577, 0.9982145, 0.9860554, 0.02156755,  0.97054, 0.9807387, 0.9925086, 0.9973644, 0.9912381, 0.2498445, 0.01921881, 0.1825787, 0.5381266, 0.9860448, 0.02012336, 0.01666037, 0.03332073, 0.9496409, 0.9796029, 0.9987434, 0.9963707, 0.9664688, 0.9800342, 0.3309079, 0.6618158, 0.9953725, 0.2159497, 0.006169992, 0.6786991, 0.006169992, 0.05552993, 0.006169992, 0.03084996, 0.9792203, 0.03106696, 0.9630757, 0.9986884, 0.9791236, 0.9586986, 0.03687302, 0.9643721, 0.9570675, 0.02900204, 0.9645735, 0.01037176, 0.01555764, 0.005185879, 0.9923542, 0.005736151, 0.938377, 0.03065994, 0.03065994, 0.01021998, 0.930018, 0.9749552, 0.03046735, 0.9936377, 0.9394991, 0.9592452, 0.0266457, 0.997153, 0.9700971, 0.00496476, 0.00496476, 0.01489428, 0.9730929, 0.00609256, 0.9930873, 0.01588387, 0.9848001, 0.2208866, 0.01840722, 0.7546958, 0.01840722, 0.9591972, 0.9807387, 0.9769368, 0.01954314, 0.977157, 0.9854173, 0.01642362, 0.9938702, 0.9599581, 0.0213324, 0.0213324, 0.9926038, 0.9599821, 0.1033297, 0.3573485, 0.2583242, 0.2798513, 0.003280209, 0.1164474, 0.3641032, 0.06560417, 0.2115735, 0.1590901, 0.0770849, 0.9711112, 0.03576733, 0.9657179, 0.04297973, 0.04297973, 0.1289392, 0.7879617, 0.1043319, 0.1825808, 0.005216595, 0.04694936, 0.1304149, 0.2086638, 0.3182123, 0.9905381, 0.007392076, 0.3337942, 0.312025, 0.348307, 0.007256396, 0.8386245, 0.0239607, 0.1437642, 0.8414789, 0.1529962, 0.0313727, 0.01568635, 0.01568635, 0.7843175, 0.1725499, 0.4410442, 0.2159279, 0.3399716, 0.02692559, 0.006731398, 0.3096443, 0.6529456, 0.7758426, 0.2226955, 0.9873275, 0.006411217, 0.006411217, 0.006411217, 0.9516612, 0.02883822, 0.02883822, 0.5438627, 0.2778429, 0.1773465, 0.001970517, 0.6184947, 0.2762209, 0.09607685, 0.009007205, 0.9791967, 0.9755676, 0.4463094, 0.5134957, 0.0383922, 0.9789962, 0.9994258, 0.02975443, 0.9372646, 0.01487722, 0.01487722, 0.9937841, 0.9500982, 0.0357269, 0.9467629, 0.9757438, 0.1907331, 0.1165591, 0.04238514, 0.2860997, 0.3602737, 0.040301, 0.9672241, 0.9880169, 0.01767954, 0.01767954, 0.2121545, 0.7602204, 0.5833238, 0.3419484, 0.003352436, 0.07040115, 0.9792358, 0.9719656, 0.02068012, 0.01034006, 0.01087589, 0.06525532, 0.8918227, 0.01087589, 0.02175177, 0.7939197, 0.1764266, 0.01102666, 0.02205332, 0.05335221, 0.0266761, 0.9336637, 0.002994076, 0.9940333, 0.002994076, 0.9762756, 0.986069, 0.6788882, 0.003592001, 0.010776, 0.003592001, 0.147272, 0.154456, 0.4969398, 0.3517664, 0.150757, 0.005583593, 0.008026027, 0.4815616, 0.5136657, 0.2404977, 0.3231687, 0.435902, 0.1710231, 0.8294619, 0.002678326, 0.008034978, 0.1339163, 0.6749381, 0.04017489, 0.1339163, 0.005356652, 0.6689851, 0.2785743, 0.05083473, 0.9878245, 0.9786143, 0.9991104, 0.4702463, 0.5279959, 0.002749978, 0.9919181, 0.007085129, 0.02116987, 0.9738141, 0.007326899, 0.05861519, 0.0146538, 0.0219807, 0.8938817, 0.9840791, 0.9515398, 0.03398357, 0.9946562, 0.1730237, 0.01153491, 0.06920948, 0.7497694, 0.9653919, 0.998888, 0.06929011, 0.0230967, 0.0230967, 0.8776747, 0.9353639, 0.02634828, 0.03952242, 0.9738697, 0.9897892, 0.07529276, 0.9035131, 0.01882319, 0.0104889, 0.9702235, 0.005244451, 0.005244451, 0.0104889, 0.02263857, 0.9734584, 0.03398413, 0.9685478, 0.9890835, 0.01141017, 0.7873014, 0.1939728, 0.01141017, 0.990159, 0.9711253, 0.0622603, 0.008894329, 0.9250102, 0.04415176, 0.02207588, 0.9492628, 0.106703, 0.320109, 0.5735286, 0.006668937, 0.03263985, 0.9302356, 0.01631992, 0.009429965, 0.6663842, 0.003143322, 0.003143322, 0.3143322, 0.005436501, 0.228333, 0.005436501, 0.1685315, 0.5110311, 0.07067451, 0.0163095, 0.008097752, 0.9393393, 0.04048876, 0.008097752, 0.9803117, 0.9738165, 0.9500982, 0.9958968, 0.9969843, 0.9904245, 0.9775168, 0.02384187, 0.08726151, 0.01454358, 0.8726151, 0.01454358, 0.2658844, 0.3867409, 0.314227, 0.03222841, 0.1114997, 0.8696974, 0.09479595, 0.8278847, 0.07583676, 0.299379, 0.4704527, 0.03665865, 0.1924579, 0.9826987, 0.007223138, 0.9245617, 0.007223138, 0.05778511, 0.007223138, 0.967142, 0.9836161, 0.7383036, 0.008486248, 0.237615, 0.008486248, 0.0364663, 0.888866, 0.009116575, 0.05469945, 0.009116575, 0.00848274, 0.6446883, 0.1781375, 0.1696548, 0.05639843, 0.1386462, 0.1010472, 0.1644954, 0.002349935, 0.08694759, 0.4511875, 0.2429664,  0.62039, 0.03538346, 0.09907369, 0.9799254, 0.9526754, 0.03292911, 0.9549443, 0.9653005, 0.9931737,  0.96651, 0.9537697, 0.01461682, 0.1388598, 0.00730841, 0.8404671, 0.9729576, 0.03742145, 0.9839132, 0.9629444, 0.9937832, 0.006043661, 0.07856759, 0.9125928, 0.007441688, 0.007441688, 0.9897445, 0.06489207, 0.5364411, 0.03460911, 0.3633956, 0.9923851, 0.004259163, 0.004259163, 0.9497965, 0.4365639, 0.0644591, 0.501023, 0.01125638, 0.9680483, 0.02251275, 0.6306624, 0.352575, 0.01489754, 0.3911309, 0.02550854, 0.5781936, 0.9757438, 0.9706732, 0.01011118, 0.02022236, 0.970882, 0.02022671, 0.9899403, 0.007121873, 0.03086887, 0.9569348, 0.03086887, 0.3167567, 0.6784266, 0.002363856, 0.002363856, 0.4375968, 0.5499528, 0.01182694, 0.05848304, 0.9273739, 0.00835472, 0.3537844, 0.6330879, 0.009310116, 0.255025, 0.005544021, 0.05544021, 0.01108804, 0.5100499, 0.09424836, 0.06652825, 0.005544021, 0.991326, 0.9866185, 0.01134044, 0.1087592, 0.03107407, 0.8545368, 0.02421297, 0.008070991, 0.9604479, 0.9958003, 0.9907308, 0.9664688, 0.9894114, 0.8093939, 0.180822, 0.008610573, 0.008610573, 0.01518735, 0.9719904, 0.01518735, 0.009732501, 0.6462381, 0.334798, 0.007786001, 0.026602, 0.9177688, 0.013301, 0.03990299, 0.9611354, 0.008852292, 0.9914567, 0.7522147, 0.2446963, 0.009062827, 0.006630646, 0.4906678, 0.006630646, 0.1458742, 0.3514242, 0.006630646, 0.9951935, 0.006770023, 0.9939445, 0.975767, 0.01742441, 0.9542229, 0.04118948, 0.003432457, 0.9981099, 0.02320788, 0.951523, 0.02320788, 0.9820734, 0.01327126, 0.02618064, 0.9425029, 0.02618064, 0.02443186, 0.02443186, 0.9284108, 0.03844082, 0.9610206, 0.999073, 0.9710877, 0.02155099, 0.9697945, 0.9537697, 0.9993671, 0.9967631, 0.002030067, 0.006076342, 0.0212672, 0.009114514, 0.9327186, 0.02734354, 0.3401105, 0.4858721, 0.004417019, 0.1722637, 0.9484459, 0.6032677, 0.3860913, 0.9599821, 0.01396309, 0.8377853, 0.1396309, 0.02577271, 0.02577271, 0.9535901, 0.9971517, 0.999006 ] 
},
"R":       30,
"lambda.step":     0.01,
"plot.opts": {
 "xlab": "PC1",
"ylab": "PC2" 
},
"topic.order": [ 2, 5, 10, 8, 1, 6, 9, 3, 4, 7 ] 
}