{
  "1": {
    "topic": [1, 2, 3, 4, 5, 6, 7, 8, 9, 10],
    "freq": [11.2975, 11.3301, 11.0341, 8.9041, 13.1007, 10.0561, 7.114, 8.5943, 8.5333, 10.0358],
    "x": [0.1654, -0.1269, -0.0154, 0.0064, 0.2215, 0.1016, -0.091, -0.0975, -0.0397, -0.1244],
    "y": [-0.178, -0.1271, 0.0317, -0.0176, 0.2105, -0.1278, 0.0261, 0.0866, 0.0352, 0.0604]
  },
  "2": {
    "topic": [1, 2, 3, 4, 5, 6, 7, 8, 9, 10],
    "freq": [11.0292, 11.2181, 9.5964, 9.1767, 9.4675, 10.7911, 9.2782, 9.8128, 9.4489, 10.1812],
    "x": [0.1911, 0.2109, 0.0498, -0.1385, -0.1978, 0.0194, 0.0646, 0.031, -0.0837, -0.1467],
    "y": [-0.0865, -0.025, 0.2066, -0.0852, -0.0141, -0.1327, 0.201, -0.0893, -0.112, 0.1371]
  },
  "3": {
    "topic": [1, 2, 3, 4, 5, 6, 7, 8, 9, 10],
    "freq": [9.5736, 10.04, 9.355, 9.2947, 9.8757, 9.0964, 11.0355, 10.2473, 10.0855, 11.3963],
    "x": [-0.0636, 0.131, -0.1172, -0.1158, 0.0766, 0.0367, -0.0901, 0.1542, -0.182, 0.1703],
    "y": [0.142, 0.0137, -0.081, 0.0421, -0.1236, -0.0212, -0.2287, -0.0495, 0.1483, 0.1579]
  },
  "4": {
    "topic": [1, 2, 3, 4, 5, 6, 7, 8, 9, 10],
    "freq": [11.5765, 9.282, 9.3519, 11.3626, 10.0924, 10.8018, 10.2302, 9.1867, 9.8274, 8.2884],
    "x": [-0.1134, -0.0847, 0.1396, -0.1846, -0.0401, 0.1602, 0.1613, 0.1087, -0.0918, -0.0552],
    "y": [-0.1953, 0.0209, 0.0991, -0.0948, 0.1558, -0.1436, -0.1016, 0.0636, 0.0599, 0.136]
  },
  "5": {
    "topic": [1, 2, 3, 4, 5, 6, 7, 8, 9, 10],
    "freq": [10.9426, 9.0947, 9.111, 11.3127, 11.5535, 9.1705, 9.5508, 9.1505, 8.5872, 11.5265],
    "x": [0.1537, 0.0241, 0.1096, -0.1651, -0.172, 0.1403, -0.172, 0.1028, 0.1031, -0.1246],
    "y": [-0.0247, -0.1413, -0.0418, 0.2334, -0.1942, -0.0077, -0.0758, 0.0903, 0.0695, 0.0924]
  },
  "6": {
    "topic": [1, 2, 3, 4, 5, 6, 7, 8, 9, 10],
    "freq": [9.5471, 9.6367, 10.4619, 13.3062, 6.8972, 8.6134, 12.9644, 12.4235, 9.4261, 6.7236],
    "x": [0.0612, 0.1408, 0.0174, -0.2187, 0.1045, 0.0768, -0.2203, -0.0589, -0.0075, 0.1047],
    "y": [-0.0452, -0.0967, 0.1349, -0.0217, 0.0241, 0.0628, -0.0738, 0.2105, -0.1649, -0.0302]
  },
  "7": {
    "topic": [1, 2, 3, 4, 5, 6, 7, 8, 9, 10],
    "freq": [10.2421, 9.3003, 10.1452, 9.8892, 11.1184, 10.5072, 9.2844, 8.9116, 10.5452, 10.0563],
    "x": [0.0332, -0.1286, 0.0374, -0.2085, 0.229, -0.0489, 0.0824, -0.1063, -0.0629, 0.1732],
    "y": [-0.1617, -0.1099, -0.0879, -0.0124, 0.0898, 0.2971, -0.0583, 0.0327, 0.0324, -0.0219]
  },
  "8": {
    "topic": [1, 2, 3, 4, 5, 6, 7, 8, 9, 10],
    "freq": [10.4153, 11.8201, 9.0136, 8.5907, 11.1569, 10.1691, 8.3067, 10.4651, 9.4407, 10.6219],
    "x": [-0.0015, -0.188, 0.0948, -0.0336, -0.0972, 0.186, 0.1591, -0.0117, 0.0627, -0.1706],
    "y": [0.0834, 0.1305, 0.1184, 0.0214, -0.1006, -0.1043, 0.0439, -0.2211, 0.0815, -0.0532]
  },
  "9": {
    "topic": [1, 2, 3, 4, 5, 6, 7, 8, 9, 10],
    "freq": [9.2531, 10.4768, 11.3127, 8.8379, 10.556, 11.2877, 9.3631, 9.4471, 10.9579, 8.5077],
    "x": [0.0112, -0.1809, 0.2059, 0.2012, -0.1636, 0.1044, -0.0782, -0.0071, -0.0807, -0.0123],
    "y": [-0.1305, -0.0688, -0.1221, 0.0474, 0.0153, 0.1984, 0.1744, -0.0431, 0.0165, -0.0874]
  },
  "10": {
    "topic": [1, 2, 3, 4, 5, 6, 7, 8, 9, 10],
    "freq": [6.5524, 11.4805, 10.7761, 8.958, 6.9706, 8.2744, 5.449, 8.3667, 22.762, 10.4103],
    "x": [-0.1431, -0.1398, 0.1211, 0.0293, -0.0321, -0.1406, -0.1081, 0.0241, 0.3236, 0.0657],
    "y": [-0.0661, 0.2634, 0.0701, 0.0115, -0.0696, -0.0408, -0.0442, -0.0668, 0.0433, -0.1008]
  }
}
